A_DAY,A_C_ID,A_IBAN,A_CURRENCY,A_F_ID,A_TYPE
2015-04-14,67,"5feceb66ffc86f38d952786c6d696c79c2","EUR",93,"IR"
2015-04-14,67,"6b86b273ff34fce19d6b804eff5a3f5747","EUR",78,"IR"
2015-04-14,67,"d4735e3a265e16eee03f59718b9b5d0301","EUR",75,"IR"
2015-04-14,67,"4e07408562bedb8b60ce05c1decfe3ad16","EUR",30,"IR"
2015-04-14,67,"4b227777d4dd1fc61c6f884f48641d02b4","EUR",90,"IR"
2015-04-14,171,"ef2d127de37b942baad06145e54b0c619a","EUR",57,"IR"
2015-04-14,171,"e7f6c011776e8db7cd330b54174fd76f7d","EUR",37,"IR"
2015-04-14,171,"7902699be42c8a8e46fbbb4501726517e8","EUR",26,"IR"
2015-04-14,171,"2c624232cdd221771294dfbb310aca000a","EUR",27,"IR"
2015-04-14,171,"19581e27de7ced00ff1ce50b2047e7a567","EUR",63,"IR"
2015-04-14,343,"4a44dc15364204a80fe80e9039455cc160","EUR",85,"IR"
2015-04-14,343,"4fc82b26aecb47d2868c4efbe3581732a3","EUR",10,"IR"
2015-04-14,343,"6b51d431df5d7f141cbececcf79edf3dd8","EUR",46,"IR"
2015-04-14,343,"3fdba35f04dc8c462986c992bcf8755462","EUR",70,"IR"
2015-04-14,343,"8527a891e224136950ff32ca212b45bc93","EUR",61,"IR"
2015-04-14,459,"e629fa6598d732768f7c726b4b621285f9","EUR",47,"IR"
2015-04-14,459,"b17ef6d19c7a5b1ee83b907c595526dcb1","EUR",48,"IR"
2015-04-14,459,"4523540f1504cd17100c4835e85b7eefd4","EUR",21,"IR"
2015-04-14,459,"4ec9599fc203d176a301536c2e091a19bc","EUR",96,"IR"
2015-04-14,459,"9400f1b21cb527d7fa3d3eabba93557a18","EUR",29,"IR"
2015-04-14,459,"f5ca38f748a1d6eaf726b8a42fb575c3c7","EUR",50,"IR"
2015-04-14,459,"6f4b6612125fb3a0daecd2799dfd6c9c29","EUR",54,"IR"
2015-04-14,459,"785f3ec7eb32f30b90cd0fcf3657d388b5","EUR",71,"IR"
2015-04-14,459,"535fa30d7e25dd8a49f1536779734ec828","EUR",52,"IR"
2015-04-14,459,"c2356069e9d1e79ca924378153cfbbfb4d","EUR",17,"IR"
2015-04-14,459,"b7a56873cd771f2c446d369b649430b65a","EUR",52,"IR"
2015-04-14,459,"5f9c4ab08cac7457e9111a30e466492060","EUR",8,"IR"
2015-04-14,459,"670671cd97404156226e507973f2ab8330","EUR",16,"IR"
2015-04-14,459,"59e19706d51d39f66711c2653cd7eb1291","EUR",6,"IR"
2015-04-14,459,"35135aaa6cc23891b40cb3f378c53a17a1","EUR",67,"IR"
2015-04-14,459,"624b60c58c9d8bfb6ff1886c2fd605d2ad","EUR",28,"IR"
2015-04-14,459,"eb1e33e8a81b697b75855af6bfcdbcbf7c","EUR",4,"IR"
2015-04-14,459,"e29c9c180c6279b0b02abd6a1801c7c040","EUR",29,"IR"
2015-04-14,459,"c6f3ac57944a531490cd39902d0f777715","EUR",37,"IR"
2015-04-14,459,"86e50149658661312a9e0b35558d84f6c6","EUR",72,"IR"
2015-04-14,459,"9f14025af0065b30e47e23ebb3b491d39a","EUR",33,"IR"
2015-04-14,459,"76a50887d8f1c2e9301755428990ad8147","EUR",37,"IR"
2015-04-14,459,"7a61b53701befdae0eeeffaecc73f14e20","EUR",75,"IR"
2015-04-14,459,"aea92132c4cbeb263e6ac2bf6c183b5d81","EUR",25,"IR"
2015-04-14,459,"0b918943df0962bc7a1824c0555a389347","EUR",58,"IR"
2015-04-14,459,"d59eced1ded07f84c145592f65bdf85435","EUR",29,"IR"
2015-04-14,459,"3d914f9348c9cc0ff8a79716700b9fcd4d","EUR",57,"IR"
2015-04-14,459,"73475cb40a568e8da8a045ced110137e15","EUR",10,"IR"
2015-04-14,459,"44cb730c420480a0477b505ae68af508fb","EUR",86,"IR"
2015-04-14,459,"71ee45a3c0db9a9865f7313dd3372cf60d","EUR",3,"IR"
2015-04-14,459,"811786ad1ae74adfdd20dd0372abaaebc6","EUR",8,"IR"
2015-04-14,459,"25fc0e7096fc653718202dc30b0c580b8a","EUR",58,"IR"
2015-04-14,459,"31489056e0916d59fe3add79e63f095af3","EUR",3,"IR"
2015-04-14,459,"98010bd9270f9b100b6214a21754fd33bd","EUR",24,"IR"
2015-04-14,459,"0e17daca5f3e175f448bacace3bc0da47d","EUR",82,"IR"
2015-04-14,459,"1a6562590ef19d1045d06c4055742d3828","EUR",24,"IR"
2015-04-14,459,"031b4af5197ec30a926f48cf40e11a7dbc","EUR",15,"IR"
2015-04-14,459,"41cfc0d1f2d127b04555b7246d84019b4d","EUR",60,"IR"
2015-04-14,459,"2858dcd1057d3eae7f7d5f782167e24b61","EUR",9,"IR"
2015-04-14,459,"2fca346db656187102ce806ac732e06a62","EUR",1,"IR"
2015-04-14,459,"02d20bbd7e394ad5999a4cebabac961973","EUR",31,"IR"
2015-04-14,459,"7688b6ef52555962d008fff894223582c4","EUR",25,"IR"
2015-04-14,459,"c837649cce43f2729138e72cc315207057","EUR",37,"IR"
2015-04-14,459,"6208ef0f7750c111548cf90b6ea1d0d0a6","EUR",82,"IR"
2015-04-14,459,"3e1e967e9b793e908f8eae83c74dba9bcc","EUR",58,"IR"
2015-04-14,459,"39fa9ec190eee7b6f4dff1100d6343e109","EUR",68,"IR"
2015-04-14,459,"d029fa3a95e174a19934857f535eb9427d","EUR",69,"IR"
2015-04-14,459,"81b8a03f97e8787c53fe1a86bda042b6f0","EUR",4,"IR"
2015-04-14,459,"da4ea2a5506f2693eae190d9360a1f3179","EUR",84,"IR"
2015-04-14,459,"a68b412c4282555f15546cf6e1fc42893b","EUR",45,"IR"
2015-04-14,485,"108c995b953c8a35561103e2014cf828eb","EUR",21,"IR"
2015-04-14,485,"3ada92f28b4ceda38562ebf047c6ff0540","EUR",83,"IR"
2015-04-14,485,"49d180ecf56132819571bf39d9b7b34252","EUR",88,"IR"
2015-04-14,485,"a21855da08cb102d1d217c53dc5824a3a7","EUR",54,"IR"
2015-04-14,485,"c75cb66ae28d8ebc6eded002c28a8ba0d0","EUR",72,"IR"
2015-04-14,485,"ff5a1ae012afa5d4c889c50ad427aaf545","EUR",53,"IR"
2015-04-14,485,"7f2253d7e228b22a08bda1f09c516f6fea","EUR",55,"IR"
2015-04-14,485,"8722616204217eddb39e7df969e0698aed","EUR",49,"IR"
2015-04-14,485,"96061e92f58e4bdcdee73df36183fe3ac6","EUR",74,"IR"
2015-04-14,485,"eb624dbe56eb6620ae62080c10a273cab7","EUR",91,"IR"
2015-04-14,485,"f369cb89fc627e668987007d121ed1eacd","EUR",99,"IR"
2015-04-14,485,"f74efabef12ea619e30b79bddef89cffa9","EUR",38,"IR"
2015-04-14,485,"a88a7902cb4ef697ba0b6759c50e8c1029","EUR",38,"IR"
2015-04-14,485,"349c41201b62db851192665c504b350ff9","EUR",56,"IR"
2015-04-14,485,"98a3ab7c340e8a033e7b37b6ef94287515","EUR",38,"IR"
2015-04-14,485,"48449a14a4ff7d79bb7a1b6f3d488eba39","EUR",86,"IR"
2015-04-14,485,"5316ca1c5ddca8e6ceccfce58f3b8540e5","EUR",57,"IR"
2015-04-14,485,"a46e37632fa6ca51a13fe39a567b3c23b2","EUR",13,"IR"
2015-04-14,485,"bbb965ab0c80d6538cf2184babad2a564a","EUR",20,"IR"
2015-04-14,485,"44c8031cb036a7350d8b9b8603af662a4b","EUR",86,"IR"
2015-04-14,485,"b4944c6ff08dc6f43da2e9c824669b7d92","EUR",84,"IR"
2015-04-14,485,"434c9b5ae514646bbd91b50032ca579efe","EUR",43,"IR"
2015-04-14,485,"bdd2d3af3a5a1213497d4f1f7bfcda8982","EUR",17,"IR"
2015-04-14,485,"8b940be7fb78aaa6b6567dd7a398799694","EUR",52,"IR"
2015-04-14,485,"cd70bea023f752a0564abb6ed08d42c144","EUR",49,"IR"
2015-04-14,485,"69f59c273b6e669ac32a6dd5e1b2cb6333","EUR",92,"IR"
2015-04-14,485,"1da51b8d8ff98f6a48f80ae79fe3ca6c26","EUR",71,"IR"
2015-04-14,485,"8241649609f88ccd2a0a5b233a07a538ec","EUR",23,"IR"
2015-04-14,485,"6e4001871c0cf27c7634ef1dc478408f64","EUR",74,"IR"
2015-04-14,485,"e3d6c4d4599e00882384ca981ee287ed96","EUR",81,"IR"
2015-04-14,485,"ad48ff99415b2f007dc35b7eb553fd1eb3","EUR",80,"IR"
2015-04-14,485,"7b1a278f5abe8e9da907fc9c29dfd432d6","EUR",30,"IR"
2015-04-14,485,"d6d824abba4afde81129c71dea75b8100e","EUR",8,"IR"
2015-04-14,485,"29db0c6782dbd5000559ef4d9e953e300e","EUR",50,"IR"
2015-04-14,485,"8c1f1046219ddd216a023f792356ddf127","EUR",75,"IR"
2015-04-14,485,"ad57366865126e55649ecb23ae1d488875","EUR",21,"IR"
2015-04-14,485,"16dc368a89b428b2485484313ba67a3912","EUR",20,"IR"
2015-04-14,485,"37834f2f25762f23e1f74a531cbe445db7","EUR",83,"IR"
2015-04-14,485,"454f63ac30c8322997ef025edff6abd23e","EUR",96,"IR"
2015-04-14,485,"5ef6fdf32513aa7cd11f72beccf132b922","EUR",62,"IR"
2015-04-14,485,"1253e9373e781b7500266caa55150e08e2","EUR",21,"IR"
2015-04-14,485,"482d9673cfee5de391f97fde4d1c84f9f8","EUR",4,"IR"
2015-04-14,485,"3346f2bbf6c34bd2dbe28bd1bb657d0e9c","EUR",55,"IR"
2015-04-14,485,"9537f32ec7599e1ae953af6c9f929fe747","EUR",1,"IR"
2015-04-14,485,"0fd42b3f73c448b34940b339f87d07adf1","EUR",72,"IR"
2015-04-14,485,"9bdb2af6799204a299c603994b8e400e4b","EUR",58,"IR"
2015-04-14,485,"f6e0a1e2ac41945a9aa7ff8a8aaa0cebc1","EUR",88,"IR"
2015-04-14,485,"b1556dea32e9d0cdbfed038fd778727577","EUR",52,"IR"
2015-04-14,485,"6c658ee83fb7e812482494f3e416a876f6","EUR",25,"IR"
2015-04-14,485,"9f1f9dce319c4700ef28ec8c53bd3cc8e6","EUR",96,"IR"
2015-04-14,595,"28dae7c8bde2f3ca608f86d0e16a214dee","EUR",28,"IR"
2015-04-14,595,"e5b861a6d8a966dfca7e7341cd3eb6be99","EUR",21,"IR"
2015-04-14,595,"2ac878b0e2180616993b4b6aa71e61166f","EUR",60,"IR"
2015-04-14,595,"85daaf6f7055cd5736287faed9603d7129","EUR",43,"IR"
2015-04-14,595,"3038bfb575bee6a0e61945eff8784835bb","EUR",42,"IR"
2015-04-14,595,"2abaca4911e68fa9bfbf3482ee797fd5b9","EUR",31,"IR"
2015-04-14,595,"89aa1e580023722db67646e8149eb246c7","EUR",35,"IR"
2015-04-14,595,"1be00341082e25c4e251ca6713e767f713","EUR",52,"IR"
2015-04-14,595,"a665a45920422f9d417e4867efdc4fb8a0","EUR",9,"IR"
2015-04-14,595,"6affdae3b3c1aa6aa7689e9b6a7b3225a6","EUR",9,"IR"
2015-04-14,595,"0f8ef3377b30fc47f96b48247f463a726a","EUR",74,"IR"
2015-04-14,595,"65a699905c02619370bcf9207f5a477c3d","EUR",76,"IR"
2015-04-14,595,"922c7954216ccfe7a61def609305ce1dc7","EUR",19,"IR"
2015-04-14,595,"2747b7c718564ba5f066f0523b03e17f6a","EUR",63,"IR"
2015-04-14,595,"6566230e3a3ce3774c1bbc7c18b590ae0f","EUR",12,"IR"
2015-04-14,595,"38d66d9692ac590000a91b03a88da1c88d","EUR",67,"IR"
2015-04-14,595,"eeca91fd439b6d5e827e8fda7fee35046f","EUR",99,"IR"
2015-04-14,595,"dbb1ded63bc70732626c5dfe6c7f50ced3","EUR",11,"IR"
2015-04-14,595,"d2f483672c0239f6d7dd3c9ecee6deacbc","EUR",79,"IR"
2015-04-14,595,"5d389f5e2e34c6b0bad96581c22cee0be3","EUR",57,"IR"
2015-04-14,595,"13671077b66a29874a2578b5240319092e","EUR",18,"IR"
2015-04-14,595,"36ebe205bcdfc499a25e6923f4450fa8d4","EUR",60,"IR"
2015-04-14,595,"d80eae6e96d148b3b2abbbc6760077b66c","EUR",3,"IR"
2015-04-14,595,"d6a4031733610bb080d0bfa794fcc9dbdc","EUR",3,"IR"
2015-04-14,595,"8d27ba37c5d810106b55f3fd6cdb358420","EUR",92,"IR"
2015-04-14,595,"dbae772db29058a88f9bd830e957c69534","EUR",45,"IR"
2015-04-14,595,"2c7d5490e6050836f8f2f0d496b1c8d6a3","EUR",88,"IR"
2015-04-14,595,"d4ee9f58e5860574ca98e3b4839391e7a3","EUR",55,"IR"
2015-04-14,595,"d6f0c71ef0c88e45e4b3a2118fcb83b0de","EUR",50,"IR"
2015-04-14,595,"5ec1a0c99d428601ce42b407ae9c675e08","EUR",46,"IR"
2015-04-14,595,"be47addbcb8f60566a3d7fd5a36f819579","EUR",90,"IR"
2015-04-14,595,"0a5b046d07f6f971b7776de682f57c5b9c","EUR",46,"IR"
2015-04-14,595,"1d28c120568c10e19b9d8abe8b66d0983f","EUR",55,"IR"
2015-04-14,595,"ec2e990b934dde55cb87300629cedfc21b","EUR",72,"IR"
2015-04-14,595,"05ada863a4cf9660fd8c68e2295f1d35b2","EUR",30,"IR"
2015-04-14,595,"9ae2bdd7beedc2e766c6b76585530e1692","EUR",83,"IR"
2015-04-14,595,"8e612bd1f5d132a339575b8dafb7842c64","EUR",5,"IR"
2015-04-14,595,"043066daf2109523a7490d4bfad4766da5","EUR",43,"IR"
2015-04-14,595,"620c9c332101a5bae955c66ae72268fbcd","EUR",69,"IR"
2015-04-14,595,"1d0ebea552eb43d0b1e1561f6de8ae92e3","EUR",98,"IR"
2015-04-14,595,"210e3b160c355818509425b9d9e9fd3ea2","EUR",59,"IR"
2015-04-14,595,"0fecf9247f3ddc84db8a804fa3065c013b","EUR",28,"IR"
2015-04-14,595,"c75de23d89df36ba921287616ee8edb4c9","EUR",69,"IR"
2015-04-14,595,"7ed8f0f3b707956d9fb1e889e11153e0aa","EUR",75,"IR"
2015-04-14,595,"ff2ccb6ba423d356bd549ed4bfb76e9697","EUR",58,"IR"
2015-04-14,595,"a512db2741cd20693e4b16f19891e72b9f","EUR",69,"IR"
2015-04-14,595,"bb668ca95563216088b98a62557fa1e268","EUR",3,"IR"
2015-04-14,595,"79d6eaa2676189eb927f2e16a700914740","EUR",50,"IR"
2015-04-14,595,"3d3286f7cd19074f04e514b0c6c237e757","EUR",6,"IR"
2015-04-14,595,"3f9807cb9ae9fb6c30942af6139909d277","EUR",21,"IR"
2015-04-14,603,"bc52dd634277c4a34a2d6210994a9a5e2a","EUR",70,"IR"
2015-04-14,603,"e0f05da93a0f5a86a3be5fc0e301606513","EUR",48,"IR"
2015-04-14,603,"73d3f1ba062585bce51f77d70a26be88c4","EUR",2,"IR"
2015-04-14,603,"80c3cd40fa35f9088b8741bd8be6153de0","EUR",26,"IR"
2015-04-14,603,"f57e5cb1f4532c008183057ecc94283801","EUR",79,"IR"
2015-04-14,603,"734d0759cdb4e0d0a35e4fd73749aee287","EUR",13,"IR"
2015-04-14,603,"284de502c9847342318c17d474733ef468","EUR",93,"IR"
2015-04-14,603,"68519a9eca55c68c72658a2a1716aac378","EUR",19,"IR"
2015-04-14,603,"4a8596a7790b5ca9e067da401c018b3206","EUR",49,"IR"
2015-04-14,603,"41e521adf8ae7a0f419ee06e1d9fb79416","EUR",59,"IR"
2015-04-14,603,"dac53c17c250fd4d4d81eaf6d88435676d","EUR",16,"IR"
2015-04-14,603,"cba28b89eb859497f544956d64cf2ecf29","EUR",97,"IR"
2015-04-14,603,"8cd2510271575d8430c05368315a87b9c4","EUR",41,"IR"
2015-04-14,603,"01d54579da446ae1e75cda808cd1884388","EUR",63,"IR"
2015-04-14,603,"3068430da9e4b7a674184035643d9e19af","EUR",73,"IR"
2015-04-14,603,"7b69759630f869f2723875f873935fed29","EUR",66,"IR"
2015-04-14,603,"580811fa95269f3ecd4f22d176e079d360","EUR",5,"IR"
2015-04-14,603,"bfa7634640c53da7cb5e9c39031128c4e5","EUR",30,"IR"
2015-04-14,603,"b8aed072d29403ece56ae9641638ddd50d","EUR",46,"IR"
2015-04-14,603,"52f11620e397f867b7d9f19e48caeb6465","EUR",59,"IR"
2015-04-14,603,"61a229bae1e90331edd986b6bbbe617f70","EUR",12,"IR"
2015-04-14,603,"2811745d7b8d8874f6e653d176cefdd19e","EUR",15,"IR"
2015-04-14,603,"38b2d03f3256502b1e9db02b2d12aa27a4","EUR",63,"IR"
2015-04-14,603,"d6061bbee6cf13bd73765faaea7cdd0af1","EUR",21,"IR"
2015-04-14,603,"7045d16ae7f043ec25774a0a85d6f479e5","EUR",44,"IR"
2015-04-14,603,"2397346b45823e070f6fc72ac94c0a999d","EUR",9,"IR"
2015-04-14,603,"70260742c2952154c84e2ea9f68b1a7397","EUR",44,"IR"
2015-04-14,603,"eb3be230bbd2844b1f5d8f2e4fab9ffba8","EUR",32,"IR"
2015-04-14,603,"684fe39f03758de6a882ae61fa62312b67","EUR",63,"IR"
2015-04-14,603,"7559ca4a957c8c82ba04781cd66a68d602","EUR",27,"IR"
2015-04-14,603,"1dfacb2ea5a03e0a915999e03b5a56196f","EUR",58,"IR"
2015-04-14,603,"b4bbe448fde336bb6a7d7d765f36d3327c","EUR",98,"IR"
2015-04-14,603,"8bcbb4c131df56f7c79066016241cc4bdf","EUR",38,"IR"
2015-04-14,603,"a4e00d7e6aa82111575438c5e5d3e63269","EUR",2,"IR"
2015-04-14,603,"5a39cadd1b007093db50744797c7a04a34","EUR",29,"IR"
2015-04-14,603,"27badc983df1780b60c2b3fa9d3a19a00e","EUR",4,"IR"
2015-04-14,603,"43974ed74066b207c30ffd0fed5146762e","EUR",24,"IR"
2015-04-14,603,"c17edaae86e4016a583e098582f6dbf3ec","EUR",26,"IR"
2015-04-14,603,"4621c1d55fa4e86ce0dae4288302641baa","EUR",60,"IR"
2015-04-14,603,"fc56dbc6d4652b315b86b71c8d688c1ccd","EUR",41,"IR"
2015-04-14,603,"f8809aff4d69bece79dabe35be0c708b89","EUR",39,"IR"
2015-04-14,603,"5cf4e26bd3d87da5e03f80a43a64f1220a","EUR",9,"IR"
2015-04-14,603,"968076be2e38cf897d4d6cea3faca9c037","EUR",79,"IR"
2015-04-14,603,"8df66f64b57424391d363fd6b811fed3c4","EUR",20,"IR"
2015-04-14,603,"83f814f7a92e365cbd79f9addceed18576","EUR",65,"IR"
2015-04-14,603,"d29d53701d3c859e29e1b90028eec1ca8e","EUR",41,"IR"
2015-04-14,603,"093434a3ee9e0a010bb2c2aae06c2614dd","EUR",68,"IR"
2015-04-14,603,"fa2b7af0a811b9acde602aacb78e3638e8","EUR",25,"IR"
2015-04-14,603,"d48ff4b2f68a10fd7c86f185a6ccede0dc","EUR",17,"IR"
2015-04-14,603,"802b906a18591ead8a6dd809b262ace4c6","EUR",82,"IR"
2015-04-14,675,"d86580a57f7bf542e85202283cb845953c","EUR",29,"IR"
2015-04-14,675,"0f4121d0ef1df4c86854c7ebb47ae1c93d","EUR",72,"IR"
2015-04-14,675,"16badfc6202cb3f8889e0f2779b19218af","EUR",63,"IR"
2015-04-14,675,"5966abd0cbfc86f98a186531b2b4ee5f6e","EUR",100,"IR"
2015-04-14,675,"314f04b30f62e0056bd059354a5536fb2e","EUR",85,"IR"
2015-04-14,675,"36790ecd55c2030dc553685bef719df653","EUR",41,"IR"
2015-04-14,675,"67e9c3acebb154a282f326d4ff1951cd1f","EUR",3,"IR"
2015-04-14,675,"9b871512327c09ce91dd649b3f96a63b74","EUR",17,"IR"
2015-04-14,675,"56f4da26ed956730309fa1488611ee0f13","EUR",55,"IR"
2015-04-14,675,"84a5092e4a5b6fe968fd523fb2fc917dbf","EUR",94,"IR"
2015-04-14,675,"0e6523810856a138a75dec70a9cf3778a5","EUR",24,"IR"
2015-04-14,675,"8f1f64db81c40ea10e1e9080c9ae60a7ac","EUR",44,"IR"
2015-04-14,675,"dfe62e836a0a6f2633422230c81287700a","EUR",73,"IR"
2015-04-14,675,"9d693eeee1d1899cbc50b6d45df953d383","EUR",98,"IR"
2015-04-14,675,"08490295488a1189099751ebeddb599231","EUR",99,"IR"
2015-04-14,675,"a0eaec5a55dc2f5b2ba523018adc485ff6","EUR",34,"IR"
2015-04-14,675,"138d9e809e386a7b800791d1f664f56d1c","EUR",91,"IR"
2015-04-14,675,"835d5e8314340ab852a2f979ab4cd53e99","EUR",77,"IR"
2015-04-14,675,"c0509a487a18b003ba05e505419ebb63e5","EUR",76,"IR"
2015-04-14,675,"114bd151f8fb0c58642d2170da4ae7d7c5","EUR",12,"IR"
2015-04-14,675,"0a2d643bfd24a028cd236e76575d828424","EUR",86,"IR"
2015-04-14,675,"9a049b03f6fc40bfcf2f136320359257ed","EUR",59,"IR"
2015-04-14,675,"f0bc318fb8965cad8d73d578cd03c63b79","EUR",92,"IR"
2015-04-14,675,"8ae4c23b80d1e7c8ff79e515fe791ebd68","EUR",43,"IR"
2015-04-14,675,"79bf08685d3138f9b109c3546780f056bc","EUR",71,"IR"
2015-04-14,675,"6af1f692e9496c6d0b668316eccb93276a","EUR",37,"IR"
2015-04-14,675,"749fc650cacb0f06547520d53c31505c81","EUR",92,"IR"
2015-04-14,675,"14063697603e22d600d336bee6cff12c8b","EUR",13,"IR"
2015-04-14,675,"72440a20f54075ac43f51a2cf0dbb2a143","EUR",18,"IR"
2015-04-14,675,"82c01ce15b431d420eb6a1febfba7d7a2b","EUR",44,"IR"
2015-04-14,675,"011af72a910ac4acf367eef9e6b761e098","EUR",18,"IR"
2015-04-14,675,"37c20f19f3272b5ccc3a5d80587eb9deb3","EUR",60,"IR"
2015-04-14,675,"396f804443825586c1283a27fdcadf74ab","EUR",78,"IR"
2015-04-14,675,"766cb53c753baedac5dc782593e04694b3","EUR",23,"IR"
2015-04-14,675,"9f484139a27415ae2e8612bf6c65a8101a","EUR",56,"IR"
2015-04-14,675,"1e472b39b105d349bcd069c4a711b44a2f","EUR",36,"IR"
2015-04-14,675,"c75d3f1f5bcd6914d0331ce5ec17c0db8f","EUR",69,"IR"
2015-04-14,675,"d6e5a20b30f87216b2c758f5e7a23c437d","EUR",82,"IR"
2015-04-14,675,"e7866fdc6672f827c76f6124ca3eeaff44","EUR",100,"IR"
2015-04-14,675,"9512d95d00d61bdec03d2b99d6ecc455ee","EUR",21,"IR"
2015-04-14,675,"9556b82499cc0aaf86aee7f0d253e17c61","EUR",61,"IR"
2015-04-14,675,"51e8ea280b44e16934d4d611901f3d3afc","EUR",99,"IR"
2015-04-14,675,"4c970004b0678d439f177e77d3cabdb7e9","EUR",100,"IR"
2015-04-14,675,"a30f4ef42176d28f0e2293533c5f532e9c","EUR",40,"IR"
2015-04-14,675,"7c252ab334fb8fd88e8242c4972c21db9c","EUR",75,"IR"
2015-04-14,675,"39bb88f40d3aa2b2fe9dea67be27c74765","EUR",66,"IR"
2015-04-14,675,"e888a676e1926d0c08b5f11fb9116df58b","EUR",49,"IR"
2015-04-14,675,"9e6a72557ada15d02001f024f43f06edc4","EUR",76,"IR"
2015-04-14,675,"4be84111a613654b362415e563cb7607df","EUR",40,"IR"
2015-04-14,675,"bba58959c32abe688d9cb5222b97de9730","EUR",34,"IR"
2015-04-14,794,"768b84ef05f655d57fe22d488451f07536","EUR",90,"IR"
2015-04-14,794,"ea5b27556fbb134def2c2fbf944d9cdda3","EUR",21,"IR"
2015-04-14,794,"8acc23987b8960d83c44541f9f0eb46454","EUR",73,"IR"
2015-04-14,794,"8b496bf96bbcc9e5ac11c068b6cfb00c32","EUR",37,"IR"
2015-04-14,794,"f747870ae666c39b589f577856a0f7198b","EUR",16,"IR"
2015-04-14,872,"d8d1790737d57ac4fe91a2c0a28087c0a9","EUR",59,"IR"
2015-04-14,872,"3635a91e3da857f7847f68185a116a5260","EUR",23,"IR"
2015-04-14,872,"1c6c0bb2c7ecdc3be8e134f79b9de45155","EUR",55,"IR"
2015-04-14,872,"303c8bd55875dda240897db158acf70afe","EUR",46,"IR"
2015-04-14,872,"718127812c05853f0bec61582a4a3840b1","EUR",75,"IR"
2015-04-14,1069,"3a1dfb05d7257530e6349233688c3e1219","EUR",42,"IR"
2015-04-14,1069,"c76b405781134be1dab7fe45adfb8c3210","EUR",65,"IR"
2015-04-14,1069,"27d719c754aacd492a6dc8a1b76619355a","EUR",42,"IR"
2015-04-14,1069,"ee62de25ccc2b55d3a0495244b246fb970","EUR",96,"IR"
2015-04-14,1069,"efd96aedf377e20afd95285a7c751a8642","EUR",55,"IR"
2015-04-14,1069,"7f0a22117f8fe0172cf9209ff622b64a51","EUR",72,"IR"
2015-04-14,1069,"71a1c003a2b855d85582c8f6c7648c49d3","EUR",79,"IR"
2015-04-14,1069,"27e1615212f3c6ea846ed6c412df1361ce","EUR",16,"IR"
2015-04-14,1069,"e0850a775c17a87060c0cf6efad1020e0c","EUR",55,"IR"
2015-04-14,1069,"1e68ed4e3d58a51096a7feea3947f40deb","EUR",100,"IR"
2015-04-14,1069,"a0d177b4967a6d99f4ff117defe1c0d23d","EUR",16,"IR"
2015-04-14,1069,"00328ce57bbc14b33bd6695bc8eb32cdf2","EUR",34,"IR"
2015-04-14,1069,"d7cdaa5ca0582076c8e772cce739e32c50","EUR",5,"IR"
2015-04-14,1069,"23c657f2efda7731a3c1990b25f318fa2e","EUR",12,"IR"
2015-04-14,1069,"af180e4359fc6179dc953abdcbdcaf7c14","EUR",44,"IR"
2015-04-14,1069,"09895de0407bcb0386733daa14bdb5dfa5","EUR",90,"IR"
2015-04-14,1069,"33512007840ced1bb0aab68f47cb5f702a","EUR",54,"IR"
2015-04-14,1069,"6db6eb4af1e18ab81d3878e44672185d60","EUR",11,"IR"
2015-04-14,1069,"7cb676d57114874e00c536916e6dcad2a5","EUR",53,"IR"
2015-04-14,1069,"2cfc8ccbd7c0b17615323b41e815651ff2","EUR",27,"IR"
2015-04-14,1069,"9cfd3c755be26b4e1645918e2a64a26e3d","EUR",65,"IR"
2015-04-14,1069,"a0f8b2c4cb1ac82abdb37f0fe5203b97be","EUR",55,"IR"
2015-04-14,1069,"4c15f47afe7f817fd559e12ddbc276f493","EUR",75,"IR"
2015-04-14,1069,"76ebdb6d45c61ca12e622118cc90939ade","EUR",65,"IR"
2015-04-14,1069,"308831041ea4863c3f87d222c31f759411","EUR",42,"IR"
2015-04-14,1069,"983bd614bb5afece5ab3b6023f71147cd7","EUR",45,"IR"
2015-04-14,1069,"c3ea99f86b2f8a74ef4145bb245155ff5f","EUR",75,"IR"
2015-04-14,1069,"f32828acecb4282c87eaa554d2e1db74e4","EUR",29,"IR"
2015-04-14,1069,"8bd9c0d453533757387ed019c45617cdc4","EUR",84,"IR"
2015-04-14,1069,"d874e4e4a5df21173b0f83e313151f813b","EUR",54,"IR"
2015-04-14,1069,"090d3859ff6840b2280f4708cf08cdaed8","EUR",97,"IR"
2015-04-14,1069,"38b83caefa1ef26940f1d07bd4ec94c608","EUR",49,"IR"
2015-04-14,1069,"6d976934be74941fba578b143ba964eded","EUR",37,"IR"
2015-04-14,1069,"48a1706eca5ee6148f748ca91a0f7db6eb","EUR",10,"IR"
2015-04-14,1069,"43c727ee4fc7250574d2ef90cfa1662638","EUR",44,"IR"
2015-04-14,1069,"226f76b55acb49701e06ded1d95165d179","EUR",43,"IR"
2015-04-14,1069,"20e9c64c05a54d199610fb7e3813536132","EUR",14,"IR"
2015-04-14,1069,"865736a1c30a82dc67aba820360a01b1d9","EUR",21,"IR"
2015-04-14,1069,"8efbbe9bc19ad2e043c6cdb187c0a0fedd","EUR",99,"IR"
2015-04-14,1069,"748064be03a08df81e31bd6f9e7e7c4cc9","EUR",55,"IR"
2015-04-14,1069,"377adeb4cd4096adc7ca64b533938cffc6","EUR",77,"IR"
2015-04-14,1069,"7a20311cf7a4b222d436424480bc65dd0f","EUR",11,"IR"
2015-04-14,1069,"8d1ede4f889e0ed6f0823d8c1821905b9d","EUR",56,"IR"
2015-04-14,1069,"aae02129362d611717b6c00ad8d73bf820","EUR",59,"IR"
2015-04-14,1069,"156091ee0884f36de9836d58b6f05f357e","EUR",96,"IR"
2015-04-14,1069,"88820462180e5c893eff2ed73f4ec33e20","EUR",49,"IR"
2015-04-14,1069,"8d23cf6c86e834a7aa6eded54c26ce2bb2","EUR",54,"IR"
2015-04-14,1069,"f10d91a7596bf5a6773579ff1306afdc36","EUR",68,"IR"
2015-04-14,1069,"3949ac1596ec77106a709a618bf5adcb19","EUR",57,"IR"
2015-04-14,1069,"1038e0b72d98745fac0fb015fd9c567048","EUR",35,"IR"
2015-04-14,1184,"9e11c362bc3d3572970b973d5cd86c073d","EUR",23,"IR"
2015-04-14,1184,"a4e987d17584557e2fbed011cddf66dc51","EUR",65,"IR"
2015-04-14,1184,"02cca3803b564ede11ccf9f303c9910b39","EUR",59,"IR"
2015-04-14,1184,"2452984f72ef1195df62ab3f23748777db","EUR",3,"IR"
2015-04-14,1184,"0791963ca2667a23cf3268ad25d7bb6ca0","EUR",28,"IR"
2015-04-14,1187,"5426d2ca50f244fb43fe9eafc82da08f33","EUR",69,"IR"
2015-04-14,1187,"0bba869d7f392cbcaca6b8935ddc7fc3a8","EUR",96,"IR"
2015-04-14,1187,"7104741a92e73eb6c5d69cd04cf0afbe50","EUR",40,"IR"
2015-04-14,1187,"556d7dc3a115356350f1f9910b1af1ab0e","EUR",36,"IR"
2015-04-14,1187,"058d5d43bf485bf78dda1ed4eaf8b78e31","EUR",52,"IR"
2015-04-14,1232,"7acc684a848a9b954959fdd22493f48cf4","EUR",3,"IR"
2015-04-14,1232,"eaa0689a095d4394a05fb51b84b0175a47","EUR",2,"IR"
2015-04-14,1232,"8ede6b26343305e05c3c0029f4e830d4e8","EUR",32,"IR"
2015-04-14,1232,"5d8f6cce532a7aeb57196be62344095936","EUR",19,"IR"
2015-04-14,1232,"fc95ce176603e9e1d1ffee39023b31dd85","EUR",26,"IR"
2015-04-14,1338,"9644294ac4ffb3091eef01219b3fe4fe46","EUR",99,"IR"
2015-04-14,1338,"524b2d27a1e7fbc3a1614fa661e2dcad68","EUR",21,"IR"
2015-04-14,1338,"023849c38925e2af028a2eb4e1dc41afd7","EUR",81,"IR"
2015-04-14,1338,"3c15285c04fff40024bb8714b93e58178b","EUR",12,"IR"
2015-04-14,1338,"02e6295d8f522840f09b5194b3f023799a","EUR",42,"IR"
2015-04-14,1473,"da70dfa4d9f95ac979f921e8e623358236","EUR",28,"IR"
2015-04-14,1473,"6aac0cf87a32e631536122c3f2f9a2df21","EUR",42,"IR"
2015-04-14,1473,"2289b221b39605c3494e7290856218e931","EUR",84,"IR"
2015-04-14,1473,"06b2d82840e43ed8432b3f444de18b57db","EUR",14,"IR"
2015-04-14,1473,"72ba187b05e705de2dced5824d716a7187","EUR",76,"IR"
2015-04-14,1642,"deeeb5df3f2cee6bf4e597a8a3a878a6ce","EUR",15,"IR"
2015-04-14,1642,"04a8708c3a481ced13845a30de52248689","EUR",65,"IR"
2015-04-14,1642,"9a72c24f2fd76561729110d804c69f38a7","EUR",22,"IR"
2015-04-14,1642,"459535faa370a3b5f8b87203b089623c7a","EUR",30,"IR"
2015-04-14,1642,"09a1b036b82baba3177d83c27c1f7d0bea","EUR",6,"IR"
2015-04-14,1642,"355d8c0ee4e5698eaed38b96aab64dbf0a","EUR",27,"IR"
2015-04-14,1642,"03a3d955b8799a90f1ff5a39479fde8e61","EUR",61,"IR"
2015-04-14,1642,"2ab0ce7632a611e907a40710ff46da13c5","EUR",59,"IR"
2015-04-14,1642,"62a0eae98b9fc0bd0ad941ae07ae5e2af5","EUR",84,"IR"
2015-04-14,1642,"9197e4844abed2fea3569a2acf7b0d584c","EUR",96,"IR"
2015-04-14,1642,"838f461c2fa673cec73e6eecdafa88b127","EUR",1,"IR"
2015-04-14,1642,"73daa9289ddd08a53ba86f065ddb07bf91","EUR",85,"IR"
2015-04-14,1642,"3963317a2b410e5357f4d839787aedb9ce","EUR",43,"IR"
2015-04-14,1642,"a43231c2216f23db8d65bbd57e0ce65736","EUR",51,"IR"
2015-04-14,1642,"b3dfdc6efe322a6feccb0d081e88ffac20","EUR",14,"IR"
2015-04-14,1642,"4e47eb5525df25f94da777993dafa41d9a","EUR",82,"IR"
2015-04-14,1642,"600b4cdf20cc06a7b5a5cca5f746429686","EUR",99,"IR"
2015-04-14,1642,"0788979fc9366e21cd56311511b897a222","EUR",40,"IR"
2015-04-14,1642,"8e6aee9efac8086ebac545d45c63e0d0df","EUR",83,"IR"
2015-04-14,1642,"5f193b350c8aba4883dedf97367ef30808","EUR",74,"IR"
2015-04-14,1642,"f1607c19a0f910ca1b8dce18843bc34e46","EUR",14,"IR"
2015-04-14,1642,"9b15fed64ef16980f625aeed46ab4cd2c4","EUR",6,"IR"
2015-04-14,1642,"62f77e7d6197863ac98d9e0cfa76bea0c8","EUR",66,"IR"
2015-04-14,1642,"e52d08747b9d7a6d04551bb86ee3f7ee6c","EUR",52,"IR"
2015-04-14,1642,"01299ac65733b5a3d774265fbfe8396b86","EUR",30,"IR"
2015-04-14,1642,"de5872c6bb4494cebd250152ce148cd623","EUR",24,"IR"
2015-04-14,1642,"12e2c8df501501b2bb531e941a737ffa7a","EUR",28,"IR"
2015-04-14,1642,"2c4cf657337835125bc4258d0e2e546af4","EUR",98,"IR"
2015-04-14,1642,"21ef779311a43f0e067d0f4f600bb5451a","EUR",75,"IR"
2015-04-14,1642,"64c212df34c66e6fe9fccbfebc8899c105","EUR",58,"IR"
2015-04-14,1642,"2af4dd48399a5cf64c23fc7933e11aaf61","EUR",68,"IR"
2015-04-14,1642,"392a52e4f77c40bf3321dc2feac356fac2","EUR",31,"IR"
2015-04-14,1642,"f65ccfbfec288565c1d414275985547799","EUR",63,"IR"
2015-04-14,1642,"48b361d46638bfa4eee090c158a750a69c","EUR",83,"IR"
2015-04-14,1642,"37b73510175057c633ebe4beb0a34917fa","EUR",95,"IR"
2015-04-14,1642,"131b0c35e2d7edef9dd63f48eff39341ef","EUR",76,"IR"
2015-04-14,1642,"15a26c6fa5151c712acc7ee45a1fd525ab","EUR",30,"IR"
2015-04-14,1642,"25dac95b8f595046bc435139636b0e2f1f","EUR",30,"IR"
2015-04-14,1642,"ab5e292db6495899871d889aaab28308f7","EUR",34,"IR"
2015-04-14,1642,"b98880883fd8d975260f1807fa46a5156f","EUR",25,"IR"
2015-04-14,1642,"48a1a756f2d83f1dc57bbf14052b70a6f4","EUR",98,"IR"
2015-04-14,1642,"a934c244755c66aebb0d6f9f5687038ffa","EUR",6,"IR"
2015-04-14,1642,"6ea2fdb3399f4d2e806beb01e9a3371bd6","EUR",33,"IR"
2015-04-14,1642,"99a0b871c9047c4f5555fcf062e0623174","EUR",83,"IR"
2015-04-14,1642,"04d19fde0a08b17aca69491e714bea4356","EUR",61,"IR"
2015-04-14,1642,"a3af7b3808c4cf72478d05c9bab9c0d47e","EUR",36,"IR"
2015-04-14,1642,"3c1b7053f0edd447b778edbc0ad8359b0f","EUR",3,"IR"
2015-04-14,1642,"1d2028ddcd746a7ee87dd0739d7435602b","EUR",22,"IR"
2015-04-14,1642,"188c1fdca79d927f6e812133173fc41d3a","EUR",36,"IR"
2015-04-14,1642,"0f78540965a86402578f8188c826c1cb6c","EUR",86,"IR"
2015-04-14,1743,"26d228663f13a88592a12d16cf9587caab","EUR",68,"IR"
2015-04-14,1743,"dcaadad1cfce437735b81ab025f776e585","EUR",98,"IR"
2015-04-14,1743,"b7c7470e59e2a2df1bfd0a4705488ee6fe","EUR",89,"IR"
2015-04-14,1743,"d26eae87829adde551bf4b852f9da6b8c3","EUR",100,"IR"
2015-04-14,1743,"6b3c238ebcf1f3c07cf0e556faa82c6b8f","EUR",66,"IR"
2015-04-14,1910,"a73b320dc0d3a57c03f897eb28ca91e623","EUR",60,"IR"
2015-04-14,1910,"f64f410744d9470ffe2d6b9ee6f042cdff","EUR",23,"IR"
2015-04-14,1910,"a5abb1500bdeaef41e2edd598c015edfaa","EUR",24,"IR"
2015-04-14,1910,"e6f47e008cc58b38596e6fdf2f50a0fea9","EUR",1,"IR"
2015-04-14,1910,"480f5a496560ae4228bb7977ecf29b2c58","EUR",53,"IR"
2015-04-14,1910,"612111a352a571cbed3927ec6f74948849","EUR",27,"IR"
2015-04-14,1910,"52f14fc33ef45dd80ac2626077948f44d8","EUR",22,"IR"
2015-04-14,1910,"fabf5b7fedb3e62a81c9298b19706249ee","EUR",6,"IR"
2015-04-14,1910,"1c49f22f6de9bd15e5e566fa8983be4cfa","EUR",90,"IR"
2015-04-14,1910,"8111eb1556229541d7d2720a51203037e7","EUR",5,"IR"
2015-04-14,1910,"fc72c98a6c2916c1bbf9f39fce094f5785","EUR",60,"IR"
2015-04-14,1910,"67e0bdb7b6c549d4fa834d0f6848ce6a3a","EUR",3,"IR"
2015-04-14,1910,"afcf8bc077e68eb94dfe783205f32cabde","EUR",84,"IR"
2015-04-14,1910,"4c8d5b6c695d265fb63dd73f275a21043a","EUR",74,"IR"
2015-04-14,1910,"cc6aed2709b80e146bebc151f1cf1dec5e","EUR",9,"IR"
2015-04-14,1910,"db55da3fc3098e9c42311c6013304ff36b","EUR",51,"IR"
2015-04-14,1910,"5092c37bcbc9f0fb33cb0f9cab7aa5ae94","EUR",93,"IR"
2015-04-14,1910,"5658b88806a236b6439a7ecd0a87af2475","EUR",30,"IR"
2015-04-14,1910,"814bb6b8dc12188a44b71e378dc20a4292","EUR",22,"IR"
2015-04-14,1910,"814fd2e8e45e9a6d3e1f6ff86867aaf225","EUR",65,"IR"
2015-04-14,1910,"0dfcddb0440e967f05bb68ca09a5e2188b","EUR",4,"IR"
2015-04-14,1910,"9be3da431e0a833d2b07781de97ebbd0b1","EUR",65,"IR"
2015-04-14,1910,"42f25adecf47629878e89e31b2073d1af0","EUR",64,"IR"
2015-04-14,1910,"cbf2f7864f1c988391a9ab199627a29bd6","EUR",22,"IR"
2015-04-14,1910,"2d1007980f49215311f7f1012e84f99b80","EUR",2,"IR"
2015-04-14,1910,"fed88b40aba63cac05eadd5db0088c0360","EUR",81,"IR"
2015-04-14,1910,"0a1f1256f9bac68e806442aa76455bb761","EUR",59,"IR"
2015-04-14,1910,"98f1f17f9a73ccfe3e25940add8d9ce9bf","EUR",32,"IR"
2015-04-14,1910,"aaf01d71b55e51b1a3051cbb3cdc064657","EUR",35,"IR"
2015-04-14,1910,"ea415bf50eb65ade427d8d80222df4627e","EUR",89,"IR"
2015-04-14,1910,"5f2703a5211db19a9020f7443f6a440fbc","EUR",58,"IR"
2015-04-14,1910,"155d1cf609cedded2fbc27a4646de87ce7","EUR",32,"IR"
2015-04-14,1910,"0ef962215cc055786d516355238a80dacc","EUR",99,"IR"
2015-04-14,1910,"18d37c950a3e810d9b9a84c72c230ca16b","EUR",58,"IR"
2015-04-14,1910,"050a010ce24d0896056e9a36a1940738d3","EUR",32,"IR"
2015-04-14,1910,"e3f6959781c353c201d378e02d9da53260","EUR",100,"IR"
2015-04-14,1910,"2dfe70c43208f52b9ef4ea7e1347052839","EUR",29,"IR"
2015-04-14,1910,"5627b4a8f9efbd8fbdadaf4177824186f8","EUR",54,"IR"
2015-04-14,1910,"6d05621ab7cb7b4fb796ca2ffbe1a141e0","EUR",1,"IR"
2015-04-14,1910,"3538a1ef2e113da64249eea7bd068b585e","EUR",53,"IR"
2015-04-14,1910,"0e12831a7047f759733b21f02852503960","EUR",90,"IR"
2015-04-14,1910,"75c3e223190bf1a1fa2af808d1dfcdffe3","EUR",60,"IR"
2015-04-14,1910,"c498f3fe97c0df55ee8dea01a72572059b","EUR",66,"IR"
2015-04-14,1910,"a4ecdd704d258aa841bb3f9a1e3b0cafc5","EUR",14,"IR"
2015-04-14,1910,"4a30a219a9d7663fdd35c0a5df49c8d550","EUR",82,"IR"
2015-04-14,1910,"83151157c10d85af7c84657c71c3e3603d","EUR",97,"IR"
2015-04-14,1910,"caa1aedb2a6ce96b39b9fde1a49e1ebcb4","EUR",67,"IR"
2015-04-14,1910,"549a2fac47d713cc00f2db498ad6b5574f","EUR",54,"IR"
2015-04-14,1910,"d83c7ee736be931d85b78a4a60881ced3f","EUR",89,"IR"
2015-04-14,1910,"48f89b630677c2cbb70e2ba05bf7a36332","EUR",69,"IR"
2015-04-14,1918,"f626051bc94422f26f4b774a2bca105e12","EUR",58,"IR"
2015-04-14,1918,"b3a8e0e1f9ab1bfe3a36f231f676f78bb3","EUR",19,"IR"
2015-04-14,1918,"353767b239099863e13ca954e20a66c9d7","EUR",54,"IR"
2015-04-14,1918,"ad21a2b810af49a8b9241e10dfce3a0169","EUR",59,"IR"
2015-04-14,1918,"42f0bec3310ddd8a55e8d62817337ca49c","EUR",44,"IR"
2015-04-14,1918,"841a05fd378a2c067058585e3691c2a3f5","EUR",88,"IR"
2015-04-14,1918,"de482c7ed5ca67ae135ef25bf3b1319497","EUR",75,"IR"
2015-04-14,1918,"da4d43f295ce92630829272fad6d2e7237","EUR",31,"IR"
2015-04-14,1918,"06de973bb45531d52cdbd483c5e50bcdda","EUR",45,"IR"
2015-04-14,1918,"88b54564b232405ab2165996517fece114","EUR",4,"IR"
2015-04-14,1918,"ad3b83575249b68aab9602de378314fc22","EUR",12,"IR"
2015-04-14,1918,"826e27285307a923759de350de081d6218","EUR",50,"IR"
2015-04-14,1918,"e078af3026edb42cc26b32784baa142a79","EUR",74,"IR"
2015-04-14,1918,"1e5ee5e58c8f490ae68e7e91b1575ebefc","EUR",32,"IR"
2015-04-14,1918,"c6bd343ae0007cdb979de7540f2668fe84","EUR",88,"IR"
2015-04-14,1918,"30eec89ddd9c342ef28a87f731d6e50ba9","EUR",50,"IR"
2015-04-14,1918,"064c3e311ef63912b0cc91db9681ce2d30","EUR",43,"IR"
2015-04-14,1918,"b6cb293891dd62748d85aa2e00eb97e267","EUR",86,"IR"
2015-04-14,1918,"3a8f6d79cd434dc10588606993976b7b2b","EUR",32,"IR"
2015-04-14,1918,"98144d79af44407273f26589afc01901b7","EUR",42,"IR"
2015-04-14,1918,"b1585fdb272b31401eaac5dd46a936c1c0","EUR",82,"IR"
2015-04-14,1918,"e73cb135243c08ab2c2adc333b150b9237","EUR",66,"IR"
2015-04-14,1918,"6e82b8197ce29396936a07b1eb951c8865","EUR",17,"IR"
2015-04-14,1918,"200dd69b70a88134b3a939de5f0b10c44a","EUR",74,"IR"
2015-04-14,1918,"9869a8a3a11a33284dc2bcc3d2e6ffd52c","EUR",38,"IR"
2015-04-14,1918,"ddfe0e8d462af661f81db36589c39882dc","EUR",38,"IR"
2015-04-14,1918,"51d089cdaf0c968c94b80671489d22b6f7","EUR",98,"IR"
2015-04-14,1918,"d4679c618f1af07ee8570edd4b931e2e68","EUR",79,"IR"
2015-04-14,1918,"48ce32e8ec7741594c8786e445fbed501f","EUR",85,"IR"
2015-04-14,1918,"a42e815c58f3977fe531a80ffd4659121c","EUR",32,"IR"
2015-04-14,1918,"5844a72aee9269a68da28cae55c706d824","EUR",5,"IR"
2015-04-14,1918,"86b700fab5db37977a73700b53a0654b21","EUR",61,"IR"
2015-04-14,1918,"9b19f9ab816598a0809e4afd5d60800f2d","EUR",84,"IR"
2015-04-14,1918,"a77b6cbdf6fae1676369dea1e1ea675e4c","EUR",64,"IR"
2015-04-14,1918,"e4be97ce765e6cfcd703884cc31db7478f","EUR",55,"IR"
2015-04-14,1918,"cbd02d97b0731d88c78d30c20d90492b2d","EUR",41,"IR"
2015-04-14,1918,"227445a988500528d7826c6921d2e3b4a7","EUR",95,"IR"
2015-04-14,1918,"23e8b0175874e1bb3b4799e13a6634a8ed","EUR",100,"IR"
2015-04-14,1918,"560aa3e6e94314c78236109e209ac79e15","EUR",38,"IR"
2015-04-14,1918,"d18b29d80a8bd366b77c952d9775510507","EUR",7,"IR"
2015-04-14,1918,"ac1270c5058af65025e5b2a3e3014cea69","EUR",75,"IR"
2015-04-14,1918,"35bbce4007c5cd57a4c6dcabbdf5b347c9","EUR",1,"IR"
2015-04-14,1918,"dcb5d6e69e4ded78464ae2843f509daf65","EUR",16,"IR"
2015-04-14,1918,"f138665c5aa6600801452ebb40df70c46e","EUR",59,"IR"
2015-04-14,1918,"db3defda18fafc0c197740438051c690d9","EUR",74,"IR"
2015-04-14,1918,"0604cd3138feed202ef293e062da2f4720","EUR",10,"IR"
2015-04-14,1918,"1158e7e12c5e7362318e5e3c2e1f2f1ab4","EUR",71,"IR"
2015-04-14,1918,"5344c4110f483793dc352c388e67776724","EUR",38,"IR"
2015-04-14,1918,"7182dd431b5c8833ed3c8a02c8615780df","EUR",7,"IR"
2015-04-14,1918,"ba689abd93c9c6a7d08b5b5c04dd27f6d6","EUR",37,"IR"
2015-04-14,1978,"e13b778ae833ca8c5d757c58e4a85bd71e","EUR",25,"IR"
2015-04-14,1978,"a2075145d3cc47b2b56aeec5e9c78fe7e0","EUR",88,"IR"
2015-04-14,1978,"a435270b90e9b7091c77f478df0b8f78dd","EUR",58,"IR"
2015-04-14,1978,"ecac903ea62dc1d5446a88330af0a17ce8","EUR",45,"IR"
2015-04-14,1978,"a05198938c6ca8cd56289c6dba6bb8aaa6","EUR",61,"IR"
2015-04-14,1978,"5e5c743a015ff8d81e2374d5bca1bdf8ed","EUR",29,"IR"
2015-04-14,1978,"2c69bc9b34fb0800a44a702e45019c107d","EUR",75,"IR"
2015-04-14,1978,"94f8607915dff25f013e45fc0642fb9830","EUR",5,"IR"
2015-04-14,1978,"39700d452c77592c9710a4a34c6fe97d61","EUR",33,"IR"
2015-04-14,1978,"b027feeb60b70f0d34ece10aead660113c","EUR",16,"IR"
2015-04-14,1978,"d4b9aead1dd10a596542d1d8211a5021b9","EUR",44,"IR"
2015-04-14,1978,"4771bef2c04a34b548b77ea7581cf82115","EUR",57,"IR"
2015-04-14,1978,"5088c1bc42f5cc6a32cdb92d7524ea06fe","EUR",9,"IR"
2015-04-14,1978,"8952115444bab6de66aab97501f75fee64","EUR",89,"IR"
2015-04-14,1978,"0cce0bd361c46fcde41daebc801da75e21","EUR",99,"IR"
2015-04-14,1978,"0b35b06a22779418f775a804f36485f7bc","EUR",1,"IR"
2015-04-14,1978,"72933e3b31f0070af6478edc3becf96e1e","EUR",50,"IR"
2015-04-14,1978,"a9346b0068335c634304afa5de1d51232a","EUR",42,"IR"
2015-04-14,1978,"a1e8154bd1a4c96efad1d5bd4a3ecbd73f","EUR",56,"IR"
2015-04-14,1978,"388c2eafe5afd475492698c0995a2daf15","EUR",97,"IR"
2015-04-14,1978,"c32ffef1ae0cabc0576614cb4d2064cea5","EUR",72,"IR"
2015-04-14,1978,"f7c2599681e9284ce1c403459e22b730e9","EUR",95,"IR"
2015-04-14,1978,"e1bb74a7794720edf4935a8813538e8113","EUR",48,"IR"
2015-04-14,1978,"bd3a797ba948938978965781bd341bc0fc","EUR",81,"IR"
2015-04-14,1978,"8920a14a7f6469b955b114111564cb9736","EUR",53,"IR"
2015-04-14,1978,"87e29676d583c04a1682dbd5bc0d989f83","EUR",26,"IR"
2015-04-14,1978,"891d46993a36d78392247c642138cede01","EUR",73,"IR"
2015-04-14,1978,"68f10bf021d7734e071e07bbf561aa0f1b","EUR",70,"IR"
2015-04-14,1978,"fb8a0d2da8683cec6cc64542f95ae11e08","EUR",7,"IR"
2015-04-14,1978,"5ef6514ed3304cf62b950982541114ac35","EUR",64,"IR"
2015-04-14,1978,"20ca98162ba780883712eb701c84e4c06f","EUR",39,"IR"
2015-04-14,1978,"d11501b090fb2749f2c49284394dd36fe0","EUR",92,"IR"
2015-04-14,1978,"da6813d10025369ac0411363a16ab750ad","EUR",45,"IR"
2015-04-14,1978,"8def3488486c17dfbc2861301b63237c3c","EUR",73,"IR"
2015-04-14,1978,"5109a4e14cbbfda6b4512fc17ff13814ff","EUR",57,"IR"
2015-04-14,1978,"84f01dd97c687fb28a296bcc2ef1801446","EUR",2,"IR"
2015-04-14,1978,"5de664ef205f95d4a68b69b148eecb04f1","EUR",46,"IR"
2015-04-14,1978,"2d86377d4cc3e6c85bab00dd407f8c5b65","EUR",44,"IR"
2015-04-14,1978,"18beb4813723e788a1d79bcbf80802538e","EUR",52,"IR"
2015-04-14,1978,"d359f8b537f1888bc71fe20b3d79eae667","EUR",96,"IR"
2015-04-14,1978,"68e476b5d5aeca7b0e3b5ca867106c32e4","EUR",48,"IR"
2015-04-14,1978,"6fc8f95bc6465849249d974d53eecc56c0","EUR",20,"IR"
2015-04-14,1978,"fadb19bfbddde11ed6828a22e742cc97f5","EUR",98,"IR"
2015-04-14,1978,"6e2d4d3a3d4c4bb21b095657230061140c","EUR",47,"IR"
2015-04-14,1978,"068814875fcdfb8faf539ef43cf5d109a2","EUR",18,"IR"
2015-04-14,1978,"f89f8d0e735a91c5269ab08d72fa27670d","EUR",11,"IR"
2015-04-14,1978,"1f09802c4beac758321ae8a9f94d752b09","EUR",12,"IR"
2015-04-14,1978,"cc6bb91d4a9aec9fe2e20ae49fd18166f5","EUR",84,"IR"
2015-04-14,1978,"d40fbd13d527595c47eacbf0d7c87d2561","EUR",51,"IR"
2015-04-14,1978,"833cd8c0e698745b16dac196a511327c3b","EUR",22,"IR"
2015-04-14,2052,"91a73fd806ab2c005c13b4dc19130a884e","EUR",69,"IR"
2015-04-14,2052,"9d6aa3d89c0171b9c2ccd57e6d41ccec30","EUR",1,"IR"
2015-04-14,2052,"5fbc314fb0b511345465b5b907ec696132","EUR",24,"IR"
2015-04-14,2052,"dd8e8c8c9dae8978f122d7bcf3d0d49f6a","EUR",10,"IR"
2015-04-14,2052,"0d6f9709edaeba4bebf576d6b886b8c708","EUR",90,"IR"
2015-04-14,2099,"6bcaea9882504292b2f6ea37a84b215463","EUR",15,"IR"
2015-04-14,2099,"04edd1d7736883194af3ddb232c337e53d","EUR",35,"IR"
2015-04-14,2099,"4eef24c6b8248c2271f6663f44ec0de3c2","EUR",27,"IR"
2015-04-14,2099,"fa4ddf29f41b575377ce14a7900d1e26b6","EUR",32,"IR"
2015-04-14,2099,"621cb5d0bdea9584dc9f7ede1479e7cca6","EUR",9,"IR"
2015-04-14,2271,"236b565af6b512826fd89dbbde2e88b944","EUR",23,"IR"
2015-04-14,2271,"c57727d64e318e2ea42af2b4c3360999ce","EUR",90,"IR"
2015-04-14,2271,"97a6d21df7c51e8289ac1a8c026aaac143","EUR",36,"IR"
2015-04-14,2271,"f8818b67ab25419ad5b1bd61440573498e","EUR",14,"IR"
2015-04-14,2271,"c7ce483fd1cc5fd498e7e2a09851c65f89","EUR",99,"IR"
2015-04-14,2271,"085b2a38876eeddc33e3fbf612912d3d52","EUR",86,"IR"
2015-04-14,2271,"f292c8c5c2fe9fd30ef1c632e6936edabe","EUR",24,"IR"
2015-04-14,2271,"5e74cb2ad4e2c9e2d3f59a1e6c8a5d4999","EUR",89,"IR"
2015-04-14,2271,"5b4afb8d2ed60a5777760a1cd17fb91b7c","EUR",70,"IR"
2015-04-14,2271,"8e28c5eb829e92abf7a5a921f42364cbb8","EUR",72,"IR"
2015-04-14,2271,"fb84a9739699e1a2c6c56b5baa0a16047a","EUR",47,"IR"
2015-04-14,2271,"f3457dabe1b412ed6374d56fe8fe3b969c","EUR",38,"IR"
2015-04-14,2271,"1086d35563c495c1cecbce12135cab3b94","EUR",38,"IR"
2015-04-14,2271,"b2cc86ae48fd3b8775335b586b3549e53a","EUR",30,"IR"
2015-04-14,2271,"59b524f8de039389005bce58385cae1d92","EUR",63,"IR"
2015-04-14,2271,"de0023e398111d43424845aaeee2e11924","EUR",32,"IR"
2015-04-14,2271,"4299da7466df09516d290f7a99c8b7a2fa","EUR",52,"IR"
2015-04-14,2271,"421c0a7b6d0ee1c34e3d78f1685b6d9511","EUR",97,"IR"
2015-04-14,2271,"62bfa285013f08807d394266cdf8261dd0","EUR",16,"IR"
2015-04-14,2271,"085bcb597bbd610a7f0f955301d0fe3734","EUR",95,"IR"
2015-04-14,2271,"c403741c4121989ac12c0829be88b8bec6","EUR",74,"IR"
2015-04-14,2271,"219de1387a6743e583e805aad3bf0ffc69","EUR",36,"IR"
2015-04-14,2271,"82a93b152b275d4c8de67c3d05c9b00e92","EUR",79,"IR"
2015-04-14,2271,"a917ca757ac59f9d568616140c2f72362f","EUR",50,"IR"
2015-04-14,2271,"fbe697429f16141bc71e3b91f3823641c8","EUR",95,"IR"
2015-04-14,2271,"e6fcc0253ed7a328a10eb6e2e1ad6abcad","EUR",28,"IR"
2015-04-14,2271,"60f070e3393291d6f836bf0acdca6138ea","EUR",82,"IR"
2015-04-14,2271,"793733573a1dfd14a2e889a11b2ad7b698","EUR",85,"IR"
2015-04-14,2271,"d4e33e2934280979f580a63f992daa7d0d","EUR",52,"IR"
2015-04-14,2271,"e2fa8f5b4364b8ef4dd1f26ab47105d908","EUR",40,"IR"
2015-04-14,2271,"a3aaf5a0e9ad2901ab35ce73910be7fbbe","EUR",64,"IR"
2015-04-14,2271,"be6b5b7140b02bff9ad8fa5aaaeca59737","EUR",87,"IR"
2015-04-14,2271,"fcf1e4bf9cc9c1083647b91463e86f49c6","EUR",11,"IR"
2015-04-14,2271,"182dc6b90f1c9cd913c39a6b5506f582ca","EUR",19,"IR"
2015-04-14,2271,"284b7e6d788f363f910f7beb1910473e23","EUR",89,"IR"
2015-04-14,2271,"36c1cc2f9d7022bf6beacb6248a89e7e67","EUR",95,"IR"
2015-04-14,2271,"aee4848a8580f31102073d34012cb3700f","EUR",27,"IR"
2015-04-14,2271,"97468f679ad305fa4dbbf17fd4bf18c41f","EUR",27,"IR"
2015-04-14,2271,"90b5bc7f03c840b2efddb22ffdfc37dd12","EUR",64,"IR"
2015-04-14,2271,"f57b8252cea0e3cad78056cbf96b9fc041","EUR",46,"IR"
2015-04-14,2271,"67eab6db6703cdf9acf656bbb09640fcde","EUR",91,"IR"
2015-04-14,2271,"1de4d95a81eb1780d5c21a880a8be65953","EUR",68,"IR"
2015-04-14,2271,"1f594da9b409f7f4b9dc5015a81761b2fc","EUR",69,"IR"
2015-04-14,2271,"01ce4b291ad3ecd240be71870340051b75","EUR",76,"IR"
2015-04-14,2271,"97623535a9ed79620c0c749a7c0a785de0","EUR",84,"IR"
2015-04-14,2271,"55f0124bb79f5c53d868ca45bbb0f4d04d","EUR",7,"IR"
2015-04-14,2271,"7595dae9cde82218336a5457ed9d55ec89","EUR",27,"IR"
2015-04-14,2271,"fa7aec4efb728534ef32c172197c956009","EUR",14,"IR"
2015-04-14,2443,"3de8392541ace28284aca7f2724273739f","EUR",3,"IR"
2015-04-14,2443,"683d098205b11550f2d71016c82c4377a9","EUR",55,"IR"
2015-04-14,2443,"85ea151b8c5b5ab0d3349100e441bd4b8d","EUR",19,"IR"
2015-04-14,2443,"ee377871c73631fd6543ddb5164d0b48ea","EUR",99,"IR"
2015-04-14,2443,"86a3f9b13a5b652f93cb17e3f4d212d84c","EUR",59,"IR"
2015-04-14,2443,"524148f24802f8c68974c2e1ecc8b8f47d","EUR",92,"IR"
2015-04-14,2443,"90b0ce469fbd8e30a2862bb24d562dc641","EUR",87,"IR"
2015-04-14,2443,"fc47b34e36f4032acd1ca2192a7b9b0970","EUR",64,"IR"
2015-04-14,2443,"fc71f2d6d38dbfc752ecaf2262916dc8ad","EUR",50,"IR"
2015-04-14,2443,"1b3c33580f2e2094cbde0bfd58f8008ee6","EUR",74,"IR"
2015-04-14,2443,"ad723f42c7aba316d944f19f340ce47d8e","EUR",94,"IR"
2015-04-14,2443,"87acb1e183a2b0f74c3b2008b8ef6975a9","EUR",46,"IR"
2015-04-14,2443,"9a35532c7499c19daeacafc961657409c7","EUR",10,"IR"
2015-04-14,2443,"67c312330b0371a0a37c565cf44ef26483","EUR",28,"IR"
2015-04-14,2443,"1ad269a743bd01b5bb74f135c332a4acc9","EUR",43,"IR"
2015-04-14,2443,"21900f41ecb7b8e6cfd9250f096aad2fe7","EUR",79,"IR"
2015-04-14,2443,"7b81eb727ed48055fa55c5e03aaa43f27b","EUR",3,"IR"
2015-04-14,2443,"3bcc1340d90b3d55accb9a57998b69708f","EUR",57,"IR"
2015-04-14,2443,"b6b1b469ea43c90a602e7ae3bdea001b11","EUR",82,"IR"
2015-04-14,2443,"709df012e236dc3f5c53b8ce75c5adf74c","EUR",98,"IR"
2015-04-14,2443,"2618182c3894875e16eeafa6c24e1fe926","EUR",88,"IR"
2015-04-14,2443,"02c000a36dcd047f5738f5abfda07dc3b6","EUR",73,"IR"
2015-04-14,2443,"bda584056eb9957d6c681e00079eff36fe","EUR",65,"IR"
2015-04-14,2443,"f4dd301311d96b70a2ee62a6bccfe21bb0","EUR",59,"IR"
2015-04-14,2443,"2cfd4b162e427e8e59a2fedf7d5d138eb6","EUR",91,"IR"
2015-04-14,2443,"3f1bb7c0da3c01e685edd592f3a3ca0b14","EUR",99,"IR"
2015-04-14,2443,"455ae2dfc77dd77562c06dc893a49d8479","EUR",85,"IR"
2015-04-14,2443,"68fcd1eb684859a314bbf7f7c99037cead","EUR",33,"IR"
2015-04-14,2443,"62e66f3e9936906923febd26f9d2536edf","EUR",33,"IR"
2015-04-14,2443,"87e50b28705900bb064d1e9df1bd6cf55a","EUR",56,"IR"
2015-04-14,2443,"3c2308b1bc64683e5aed4111841da5bc3b","EUR",20,"IR"
2015-04-14,2443,"ed0b853bd9c28435b6aa98fb0780ca80d7","EUR",50,"IR"
2015-04-14,2443,"86bc00bf176c8b99e9cbdd89afdd2492de","EUR",51,"IR"
2015-04-14,2443,"c86a2932e1c79343a3c16fb218b9944791","EUR",99,"IR"
2015-04-14,2443,"5480ab857f30bc9abdc0d88179b66cb30b","EUR",26,"IR"
2015-04-14,2443,"2099a9b5f777e242d1f9e19d27e232cc71","EUR",45,"IR"
2015-04-14,2443,"e9ad42e2c3f4805614f568186b0282219c","EUR",5,"IR"
2015-04-14,2443,"83eaf4dc5e19bcbeb23801e2c3e08c4a89","EUR",34,"IR"
2015-04-14,2443,"5f128c8385e577cd1539a0e5a758e4004f","EUR",55,"IR"
2015-04-14,2443,"92a6a32f99def322d70ea1167a99c6859a","EUR",37,"IR"
2015-04-14,2443,"9f6cb78c09b22a1a10564f6be4a1784327","EUR",82,"IR"
2015-04-14,2443,"d62a7b3da232bd0ac1f7520a3b5bb57b17","EUR",75,"IR"
2015-04-14,2443,"24be8ee76308afb924abfaf26212411f2b","EUR",46,"IR"
2015-04-14,2443,"c22e1a4acbd2d996ff19a852585f943488","EUR",46,"IR"
2015-04-14,2443,"5c17cac5569c1ab72a3f009c7608dfc492","EUR",98,"IR"
2015-04-14,2443,"fc9e91cc78e1817d80b4ba8c2dc9a638d0","EUR",84,"IR"
2015-04-14,2443,"316c0f93c7fe125865d85d6e7e7a31b79e","EUR",48,"IR"
2015-04-14,2443,"81f27f8a7d8766c72c0307a31327c1fad9","EUR",18,"IR"
2015-04-14,2443,"4b8ba4b13094beaef100d3eb7d4c8e2360","EUR",30,"IR"
2015-04-14,2443,"09eac95eb995b821f45353054da3c7eec5","EUR",97,"IR"
2015-04-14,2624,"9ae8f17cfc8ba7fd8fb34b2a194ef965a3","EUR",23,"IR"
2015-04-14,2624,"c7e616822f366fb1b5e0756af498cc11d2","EUR",81,"IR"
2015-04-14,2624,"8b5551ea922dd24625c45051c64adb50fd","EUR",69,"IR"
2015-04-14,2624,"6f81082badfd007354ac6ebb78adaa04bf","EUR",47,"IR"
2015-04-14,2624,"bf31e6128301d31bb4014faf6b1e0f05f3","EUR",61,"IR"
2015-04-14,2739,"172e1676eda470ede17e9d491554bcbe97","EUR",52,"IR"
2015-04-14,2739,"00bebc5be79d19e1b8b3f250dc39aebfa9","EUR",27,"IR"
2015-04-14,2739,"12f26af0dcdfae8fe4331d6a4c369edd54","EUR",82,"IR"
2015-04-14,2739,"f4466a4b51d21014b34f621813a1ed75f1","EUR",65,"IR"
2015-04-14,2739,"8ef532f440c91b5dfa24570e53d6bded96","EUR",36,"IR"
2015-04-14,2749,"a440868cf4311953cb45c7ded9360009e1","EUR",62,"IR"
2015-04-14,2749,"63db0204e2f34aaadace364d046ef5d761","EUR",98,"IR"
2015-04-14,2749,"2782526eaa0c5c254b36d0c90e1f8c06af","EUR",20,"IR"
2015-04-14,2749,"cebe3d9d614ba5c19f633566104315854a","EUR",51,"IR"
2015-04-14,2749,"34e2ad7b31cd9ee87c038c10fd6fbe3103","EUR",14,"IR"
2015-04-14,2842,"a4c6af0cb6f02dff01ba174e4cf11f24f7","EUR",34,"IR"
2015-04-14,2842,"1c8dcc518b9942ef52885666bfb82260c2","EUR",70,"IR"
2015-04-14,2842,"ec1c7d93ba051204e4fea7e167f540c213","EUR",93,"IR"
2015-04-14,2842,"07bed92aab16ecdd9c886a79e44f0c0b02","EUR",2,"IR"
2015-04-14,2842,"10ba045e9ee40807e57f6093280b9fa9ea","EUR",7,"IR"
2015-04-14,2842,"bb9b8ef813475d1e0ad84e2505af6656d1","EUR",45,"IR"
2015-04-14,2842,"162753c27c8b32975a0edf5e89ab4ed8e2","EUR",23,"IR"
2015-04-14,2842,"c2077253a9b10166e7c8ffda8f2377456f","EUR",40,"IR"
2015-04-14,2842,"1c63ed9164d61acfd1f4f3a7b6dfacbd98","EUR",53,"IR"
2015-04-14,2842,"fc4fb94d36f45aa9d13358022455e55db4","EUR",9,"IR"
2015-04-14,2842,"f6103ca1e01bd200a9258a366b7e8c22a5","EUR",35,"IR"
2015-04-14,2842,"809e63d5c8aa03af112d17361058d0d895","EUR",23,"IR"
2015-04-14,2842,"4cc3d9cba4633096fadf09ea1106b4b321","EUR",96,"IR"
2015-04-14,2842,"8b7fb6aee1c63e17f44f935a6b64e05920","EUR",74,"IR"
2015-04-14,2842,"a6c2a2325dfd588f202a240a06ccb2b037","EUR",1,"IR"
2015-04-14,2842,"11f8e31ccbdbb7d91589ecf40713d3a8a5","EUR",13,"IR"
2015-04-14,2842,"677fe64a8ea7e98a420d129f1cf3d4d23a","EUR",66,"IR"
2015-04-14,2842,"d6723fa996ced47773f2dea29cce9b11f9","EUR",6,"IR"
2015-04-14,2842,"e4c6a9f38e8e4d127290cf104ac1f46d06","EUR",81,"IR"
2015-04-14,2842,"c9a5da075f9e5c3e7a916570946fed4826","EUR",61,"IR"
2015-04-14,2842,"99ee50221221864d50c60baea6f14d8ac2","EUR",78,"IR"
2015-04-14,2842,"290a0b92873bdf4e47986dc5208037bad7","EUR",73,"IR"
2015-04-14,2842,"47fec9f491173c57c1d5b35dfefdb69cba","EUR",7,"IR"
2015-04-14,2842,"769e881d85fc5d27cb4cbc8382200d95b1","EUR",73,"IR"
2015-04-14,2842,"e4e549408422875958476160732390defe","EUR",86,"IR"
2015-04-14,2842,"bd94717d91260895035088525e817ea103","EUR",30,"IR"
2015-04-14,2842,"35254aa9a21444e50349cebb5465b9b42c","EUR",69,"IR"
2015-04-14,2842,"5b60f221d4a1852afd0194ad0857fae9c5","EUR",66,"IR"
2015-04-14,2842,"1706be6c293444756e72b05e4afa9eb103","EUR",62,"IR"
2015-04-14,2842,"92c5fd0421c1d619cbf1bdba83a207261f","EUR",61,"IR"
2015-04-14,2842,"4ec24a2d7f1dfae1f98882eabf0400cd94","EUR",65,"IR"
2015-04-14,2842,"2499d690642faa4da2a67b078236d1c031","EUR",8,"IR"
2015-04-14,2842,"9b09d7f65345fc85aaa8814b69f3c933ce","EUR",64,"IR"
2015-04-14,2842,"40f8d6d22b99ea3388538fd60bbf532256","EUR",69,"IR"
2015-04-14,2842,"c66bbe9d118f554bfdba35a609848b9ab2","EUR",90,"IR"
2015-04-14,2842,"35c71bd7eaf4607047bb7c186d17251942","EUR",9,"IR"
2015-04-14,2842,"2e00b312b0a9681bef09f9085a4e918b8f","EUR",71,"IR"
2015-04-14,2842,"d536a8c1664fec0bc85615cf3cb2645871","EUR",81,"IR"
2015-04-14,2842,"6c0f3412848008d49d186d5fad7fd14826","EUR",88,"IR"
2015-04-14,2842,"02837c1944876b4fa860432c13f2d9b11a","EUR",47,"IR"
2015-04-14,2842,"d829857eb1366e70be857a69886d1555af","EUR",26,"IR"
2015-04-14,2842,"74de057f768beb42de17ffc4b8a56100f0","EUR",96,"IR"
2015-04-14,2842,"0ebb3519a0c4044c4571b2408a52e7ed80","EUR",34,"IR"
2015-04-14,2842,"07e46896ba89f88776fed50a1b7895129f","EUR",76,"IR"
2015-04-14,2842,"68c6c6e9ad314d1a5c4d647cfb6ed84265","EUR",96,"IR"
2015-04-14,2842,"5c3e9040008c91509e2d28e5308034b677","EUR",94,"IR"
2015-04-14,2842,"9dcbe7e30f0bd60827341113108a55f86b","EUR",48,"IR"
2015-04-14,2842,"30e4c02268d49ca010e3c62fcc2615da2f","EUR",3,"IR"
2015-04-14,2842,"7c3d90003d7d645be0b5f3782533c198a5","EUR",39,"IR"
2015-04-14,2842,"509694b0a010c6431900e71b8210521af5","EUR",54,"IR"
2015-04-14,3006,"61182f39851829ca78c919a83ecbfa045f","EUR",81,"IR"
2015-04-14,3006,"f24f1a64b591544a871284bdde332d3c5d","EUR",90,"IR"
2015-04-14,3006,"81defd9e2e8f85c7f09874bbe5b8d9a9a5","EUR",82,"IR"
2015-04-14,3006,"367461e6dd07bdb57342cb64b2a8d8e0fa","EUR",53,"IR"
2015-04-14,3006,"c2a181d8178a9f753b013fc4bb892ceeb5","EUR",83,"IR"
2015-04-14,3006,"1a42d5267aba37d7057cadd672fefef047","EUR",43,"IR"
2015-04-14,3006,"2b9449f314bf93145f8122906d8dc56c4c","EUR",99,"IR"
2015-04-14,3006,"bc8db39f614342b78a67494dbece216d37","EUR",23,"IR"
2015-04-14,3006,"102624ac0a714fa26aa0f8569b1aa0f0f8","EUR",94,"IR"
2015-04-14,3006,"40962624bfc236888ff8a68a74b0c30166","EUR",22,"IR"
2015-04-14,3006,"234666d765f4c0a26cf4d96eced9155888","EUR",12,"IR"
2015-04-14,3006,"75f7313c20144e39edcf57a14733d074ae","EUR",22,"IR"
2015-04-14,3006,"ccbcd0d62f439eacea8b0fa4139d934d27","EUR",10,"IR"
2015-04-14,3006,"0df5486b7bca884d5f00c502e216f734b2","EUR",2,"IR"
2015-04-14,3006,"a15faf6f6c7e4c11d7956175f4a1c01edf","EUR",28,"IR"
2015-04-14,3006,"42c6024940120036d7a0103375d5b8e507","EUR",89,"IR"
2015-04-14,3006,"5dad6478e152b8aa33dc6a2c27992d26c0","EUR",66,"IR"
2015-04-14,3006,"6f90a5a0d3234433d03c7a06fc4bd5c3ac","EUR",18,"IR"
2015-04-14,3006,"0c658eb5d61e88c86f37613342bbce6cbf","EUR",6,"IR"
2015-04-14,3006,"6165d33e490f91dbf808b194904d4f07c5","EUR",10,"IR"
2015-04-14,3006,"64d095f2fecfdeb907dae5403b10966c4a","EUR",48,"IR"
2015-04-14,3006,"d3b913cdf3e8a79786216cc7bbd15fc27f","EUR",13,"IR"
2015-04-14,3006,"8b80f49ec2822cb3cdbe97d9405e39ae40","EUR",60,"IR"
2015-04-14,3006,"a8cee66e4788af8b855979155e486c988d","EUR",43,"IR"
2015-04-14,3006,"4099ed5ba70aebc5a9dc26bc2093d4b458","EUR",14,"IR"
2015-04-14,3006,"86ab8cbe5869bd1f9c70924e9c04fef3bb","EUR",92,"IR"
2015-04-14,3006,"a7f0b84de7a450eaf6ffab449cb0f141b6","EUR",20,"IR"
2015-04-14,3006,"b6bc077d6675a7c8cc9e2fa5a08c86ba59","EUR",50,"IR"
2015-04-14,3006,"f15223dcc0da90206acdce51c6a9e24938","EUR",85,"IR"
2015-04-14,3006,"b967fb22d506bda1b4d8a878f46c85862f","EUR",70,"IR"
2015-04-14,3006,"afccd937e6ac2d1b6d6e9f318bc5e8a179","EUR",41,"IR"
2015-04-14,3006,"c78961d3d782d8a85d9344eedae027f43c","EUR",56,"IR"
2015-04-14,3006,"9b6c13f0d182b253c607005217881bbca2","EUR",12,"IR"
2015-04-14,3006,"df56bc061e91023bff33c6ba0d49d166a6","EUR",91,"IR"
2015-04-14,3006,"aaee0ce51abf0849e68b257ab97d83a36d","EUR",22,"IR"
2015-04-14,3006,"a67063986e67b7ddd107229ba9d480ee3a","EUR",74,"IR"
2015-04-14,3006,"04222ea3e14cb1209b9726defe3efce519","EUR",37,"IR"
2015-04-14,3006,"12132cd6767ee325d35883d25c0b7f5e1d","EUR",96,"IR"
2015-04-14,3006,"f7b856c054de7ccced087ad4f9413380ec","EUR",31,"IR"
2015-04-14,3006,"afa472a961fbcb09314e81b2c3eb19cd2d","EUR",18,"IR"
2015-04-14,3006,"ca0cec7f60085f0289aaea5cbfbdd84ad2","EUR",90,"IR"
2015-04-14,3006,"0fbc9039145b6449a7765dcc00d3bd8377","EUR",64,"IR"
2015-04-14,3006,"9168e847861429230da331e23aa7983862","EUR",77,"IR"
2015-04-14,3006,"d15e7843961ed4bfa3e08a80b882c74670","EUR",62,"IR"
2015-04-14,3006,"089ee14b926fabea6dd95890032d1a37e6","EUR",78,"IR"
2015-04-14,3006,"54006483f014c53f76d879c033e5589a76","EUR",35,"IR"
2015-04-14,3006,"3daebbc6dfd81355f1cc9d9565ab4a4a53","EUR",6,"IR"
2015-04-14,3006,"eaf89db7108470dc3f6b23ea90618264b3","EUR",43,"IR"
2015-04-14,3006,"93411f44e228b5004bdec50f32b6c64681","EUR",81,"IR"
2015-04-14,3006,"87a4a78ecb6deb2dee9ddd0678d0380014","EUR",33,"IR"
2015-04-14,3058,"0e78437805639c14d6413de94c031fd1ba","EUR",1,"IR"
2015-04-14,3058,"28955b1fb53203e2ff246fd2d4c3e148d4","EUR",98,"IR"
2015-04-14,3058,"3da6ee6699da1eb52d358aa59b8e1cf6b5","EUR",79,"IR"
2015-04-14,3058,"5620e84be3e5141819e0d9e4ba10b782ba","EUR",58,"IR"
2015-04-14,3058,"ff108b68b0e9bc1e5a744f80f9ef1b8575","EUR",26,"IR"
2015-04-14,3058,"9e04a49e5786695116f9af28552da3083d","EUR",41,"IR"
2015-04-14,3058,"87c7965a1cc6c11a653b210aaef95e381b","EUR",49,"IR"
2015-04-14,3058,"fc091d39524c9d4b5b11f84f9132996a94","EUR",95,"IR"
2015-04-14,3058,"82607c98dec8f45ac84e7eae445d8da60d","EUR",38,"IR"
2015-04-14,3058,"35a9e381b1a27567549b5f8a6f783c167e","EUR",5,"IR"
2015-04-14,3058,"1a6d9c97798d8997f85ed9228296d533be","EUR",80,"IR"
2015-04-14,3058,"0b0fc3be2ee8d1d33518036b0f38402ee7","EUR",13,"IR"
2015-04-14,3058,"74332c78b10e3ee51ac4a3c18ccc15c1b6","EUR",62,"IR"
2015-04-14,3058,"23c5910b8b10cfa86e40099cf01e5c2b36","EUR",10,"IR"
2015-04-14,3058,"5283f1b4e66467616feca1e0162c7d37e4","EUR",48,"IR"
2015-04-14,3058,"c032851ed192d8ac0a3ad04b0ef3060b44","EUR",7,"IR"
2015-04-14,3058,"724213d95916de041564e5d39c2373585d","EUR",40,"IR"
2015-04-14,3058,"f7abf2a084c3668c7b90654bf01205085e","EUR",99,"IR"
2015-04-14,3058,"4d5e5deb0353d3a6c0b5cf97de0a23087a","EUR",68,"IR"
2015-04-14,3058,"ce02d4b6d1aceeea96a562c10923d59060","EUR",8,"IR"
2015-04-14,3058,"1a1cf797fabe7f95836fabeca626907c77","EUR",74,"IR"
2015-04-14,3058,"096012b7ebcaf56d1d63b2784d2b2bbdea","EUR",61,"IR"
2015-04-14,3058,"477f4b2cdd3fe2b9fdd7dfb887f98252ef","EUR",12,"IR"
2015-04-14,3058,"9f006addc898a6458ff29db72de90b27e2","EUR",97,"IR"
2015-04-14,3058,"dccb3c52e7c79f7033e1ea06eadf92fd90","EUR",36,"IR"
2015-04-14,3058,"d1c78c9aa5dcb0991f46b25fbaaa359d7d","EUR",97,"IR"
2015-04-14,3058,"f0ccd8e78b618cb55731054911af540b54","EUR",93,"IR"
2015-04-14,3058,"fce86e339dc3131c489202ec3b6c8d4319","EUR",77,"IR"
2015-04-14,3058,"d72a11d264e746464ed45f73e1ec058e33","EUR",96,"IR"
2015-04-14,3058,"0b06d2ffebd5c025cf444cb95a73e1fff0","EUR",55,"IR"
2015-04-14,3058,"5d85be4cc5af40a7cf2c4f0818d92689c1","EUR",45,"IR"
2015-04-14,3058,"bcaf44f4041e62e142d50cad2aae2520e0","EUR",89,"IR"
2015-04-14,3058,"313c938e0103b56b43632b702e3e63447f","EUR",24,"IR"
2015-04-14,3058,"477d8dffaf92d265c56dca496167d71bfc","EUR",75,"IR"
2015-04-14,3058,"76ba652cbd2ef1931d0546ac1c9d8f12d2","EUR",13,"IR"
2015-04-14,3058,"96da2f8885ba92c9ca4d34bb763a3bc9e1","EUR",14,"IR"
2015-04-14,3058,"96bb293aaa330ef307ee004448b92b75ff","EUR",54,"IR"
2015-04-14,3058,"7b2c21ead1522776414b5a256722903b46","EUR",44,"IR"
2015-04-14,3058,"2b4da94214015b4281ac65905270bda4ee","EUR",1,"IR"
2015-04-14,3058,"bc57590a33fe355e174396df60ac503f8e","EUR",76,"IR"
2015-04-14,3058,"edbad80a93adb5830afc3fccfe0e7c27a8","EUR",21,"IR"
2015-04-14,3058,"af5422f824076084bed9b8a09086ac59f0","EUR",13,"IR"
2015-04-14,3058,"f391e014b2ee3a42955272b8fc78634de1","EUR",76,"IR"
2015-04-14,3058,"7a84ae249fa744b8c1acb6c5247c2cf443","EUR",63,"IR"
2015-04-14,3058,"7a9b1b9dd2e433fc1fc962c38ad571bf1e","EUR",46,"IR"
2015-04-14,3058,"10e4e7caf8b078429bb1c80b1a10118ac6","EUR",6,"IR"
2015-04-14,3058,"f6543e952ecb93fba1fa65c547c5073a5d","EUR",50,"IR"
2015-04-14,3058,"ab16ce326c754df41ed00df6f64f7073dc","EUR",71,"IR"
2015-04-14,3058,"43d244581aa23a744de9d775979165eb22","EUR",72,"IR"
2015-04-14,3058,"a807c0dc0a5b5ea4a70b12ba52ead3d309","EUR",49,"IR"
2015-04-14,3142,"10716564f7bea47036cae9a39adc7dcd39","EUR",46,"IR"
2015-04-14,3142,"209eb5f20ab018ff6f1e42b98e5b57921a","EUR",35,"IR"
2015-04-14,3142,"93c3755d0c9030cd90f0e6eae6870a8497","EUR",14,"IR"
2015-04-14,3142,"130790feced08212eed7d1490dd4d7abf1","EUR",94,"IR"
2015-04-14,3142,"5c344ba7044815dd03c3448028a43e5b9c","EUR",68,"IR"
2015-04-14,3296,"a5af16fb4a4856cc3f8530b5214830a851","EUR",17,"IR"
2015-04-14,3296,"33eb7e4ae43f9873d9c84c0f07b055946b","EUR",57,"IR"
2015-04-14,3296,"501a4e61aa4f7737df0305124a39119b79","EUR",72,"IR"
2015-04-14,3296,"cef5838d118dccd9de488f16a934cf10a8","EUR",71,"IR"
2015-04-14,3296,"7f3ee9fe1fbf452b0c242614e1cad18b6d","EUR",39,"IR"
2015-04-14,3296,"fd0f7e53c5b02b688a57ee37f3d52065cb","EUR",1,"IR"
2015-04-14,3296,"7125e777a6b199fc4e8c2a0d024215e393","EUR",49,"IR"
2015-04-14,3296,"ac93f3a0fee5afa2d9399d5d0f257dc92b","EUR",47,"IR"
2015-04-14,3296,"55e8ab098d48f8be5578e3d3708496d152","EUR",3,"IR"
2015-04-14,3296,"db9351a297a7362b3c913ac8de77bd9a1c","EUR",8,"IR"
2015-04-14,3296,"3d34f102d1708fc5edd3111144f78764b4","EUR",21,"IR"
2015-04-14,3296,"6cb6d4b2fa122bf8bd63280061e4a23056","EUR",53,"IR"
2015-04-14,3296,"19e68d9fe08f7c4ac18948bf437400f955","EUR",2,"IR"
2015-04-14,3296,"de498b9901677f58da56b38a515db0a6a3","EUR",66,"IR"
2015-04-14,3296,"12e967ca0f368d0d8511518c58c6929146","EUR",93,"IR"
2015-04-14,3296,"7ffc2066e20c16e95c0b41167e334afe57","EUR",38,"IR"
2015-04-14,3296,"6ffbae9aaff664bd4739f51a6c7883a2c3","EUR",70,"IR"
2015-04-14,3296,"929f003731a97f915d11893c6652bbc7db","EUR",70,"IR"
2015-04-14,3296,"7fc81a57656ec055615121454cb5343aaf","EUR",68,"IR"
2015-04-14,3296,"f0cbba2470c7c8706fe77e8d88e947ed8c","EUR",43,"IR"
2015-04-14,3296,"3097fc802d49355a0a256d4b07ab9f7257","EUR",13,"IR"
2015-04-14,3296,"c0cc3b36d8f848d56fbf95b8259dd6f3bf","EUR",41,"IR"
2015-04-14,3296,"22cdd352056c42ac1a6d01d6bd4f8e8ed1","EUR",65,"IR"
2015-04-14,3296,"8e46760943785a93c7bbfd1b0e733299b0","EUR",37,"IR"
2015-04-14,3296,"12bdc9eedc0abc0dc0f5a4c36836d8bac9","EUR",45,"IR"
2015-04-14,3296,"02f99d2002c703f1669e358989f1663e1e","EUR",47,"IR"
2015-04-14,3296,"eb0c9cdc0862653468dacc6a876a0c40e9","EUR",79,"IR"
2015-04-14,3296,"ee9d527a0a6108477fc5c98cf2a00f65d3","EUR",45,"IR"
2015-04-14,3296,"c62ce8b4e927f02f91742ab99d269a17e0","EUR",2,"IR"
2015-04-14,3296,"8f97d9164b8fa131f0361abbe49fe706d3","EUR",23,"IR"
2015-04-14,3296,"8b6cd7c429e83373dbd412f43d7422c0c4","EUR",27,"IR"
2015-04-14,3296,"80c39b8ca01cdfda142928ba683d503173","EUR",71,"IR"
2015-04-14,3296,"7c4e3e519f7e8481ec5cdb09dd1e35a1a7","EUR",59,"IR"
2015-04-14,3296,"d2e655334ee2e4841be477484381df1617","EUR",31,"IR"
2015-04-14,3296,"5b7c4e75c9485e2e988dce7c57bd9e9915","EUR",29,"IR"
2015-04-14,3296,"8a9a02d73aeefd97306a08c30969a9e8d5","EUR",67,"IR"
2015-04-14,3296,"062f50753b9095ee2eff40f888d93e61f2","EUR",68,"IR"
2015-04-14,3296,"b543b2a3edcc48cc0f9d7159522673384b","EUR",41,"IR"
2015-04-14,3296,"46f9d22816179479bd27b0036854788327","EUR",54,"IR"
2015-04-14,3296,"3d734d729009b74c011651eb24b06a7415","EUR",15,"IR"
2015-04-14,3296,"c63efd61a70d0f6b7e5de2b9e0c36adfae","EUR",40,"IR"
2015-04-14,3296,"a73ab888363736220eb589458721088241","EUR",14,"IR"
2015-04-14,3296,"30e26cef13a6dbbf0e3035f8c16f55670f","EUR",43,"IR"
2015-04-14,3296,"f1916530dae6514fd8ba7c17eadab5ba67","EUR",1,"IR"
2015-04-14,3296,"4f97f2eebf92cde58c103466712fa2f65b","EUR",76,"IR"
2015-04-14,3296,"52efd2aad05d27e3eac3665b82f2bffa6d","EUR",38,"IR"
2015-04-14,3296,"28096b238fafbfd5abdb8ddf4e7f5a2c67","EUR",28,"IR"
2015-04-14,3296,"1de4842b42fa3db35fc4cf058a02acb057","EUR",99,"IR"
2015-04-14,3296,"3055e0d8130c7a197bc6e020afe9bea1ed","EUR",3,"IR"
2015-04-14,3296,"f44b7809595e5ebe3bb4d65e0cdd1ebbb4","EUR",18,"IR"
2015-04-14,3453,"3bd625f07792e885b5a4b5f0b9005a5b53","EUR",10,"IR"
2015-04-14,3453,"000f21ac06aceb9cdd0575e82d0d85fc39","EUR",29,"IR"
2015-04-14,3453,"be4b2f45069c180ef309521f6770146920","EUR",31,"IR"
2015-04-14,3453,"5e968ce47ce4a17e3823c29332a39d049a","EUR",34,"IR"
2015-04-14,3453,"a829c72c42755e384141ad8f163e4965ef","EUR",36,"IR"
2015-04-14,3453,"e6f095e985e6762f1538b47ff1abda58db","EUR",91,"IR"
2015-04-14,3453,"d7be6321b3d940822dd195bcc86cca411c","EUR",83,"IR"
2015-04-14,3453,"46db1ca7f3598c26c3e6c8d99e3ed95d2b","EUR",3,"IR"
2015-04-14,3453,"64d94c866dffad6dab67498f5ed9cdf32a","EUR",27,"IR"
2015-04-14,3453,"eaa1938017b2d55e02387d0837e1b56bc1","EUR",45,"IR"
2015-04-14,3453,"c49b60838c5c6ddf34806b6b3f56b51516","EUR",79,"IR"
2015-04-14,3453,"62f6d46c48c7d9ff3d09a408d0ec880f16","EUR",23,"IR"
2015-04-14,3453,"c62510afc57db491f9f993387b76dd9a7d","EUR",18,"IR"
2015-04-14,3453,"1bde41ce9b4fccbf7dde0dc315d1aea5fa","EUR",49,"IR"
2015-04-14,3453,"91d95f436356bc3df44d44406a139351de","EUR",15,"IR"
2015-04-14,3453,"bdc5d8a48c23897906b09a9a3680bd2e9c","EUR",2,"IR"
2015-04-14,3453,"fa88d374b9cf5e059fad4a2fe406feae4c","EUR",29,"IR"
2015-04-14,3453,"6a97982dccf77dd3dafa27fcbdf75c0173","EUR",2,"IR"
2015-04-14,3453,"a2cc73deb383356e2c51d5616631e0071b","EUR",2,"IR"
2015-04-14,3453,"533eb9a8909f614c351b65e6b8aba1ffc2","EUR",57,"IR"
2015-04-14,3453,"43f64dc77762f69f9f52d5f70b53170679","EUR",14,"IR"
2015-04-14,3453,"2f84035610deb9378036cb7a5498b88548","EUR",7,"IR"
2015-04-14,3453,"c8c9cad7b920b50f713830b8dc55f59fff","EUR",3,"IR"
2015-04-14,3453,"5e61b431f3823da05836b2139f9a811c3c","EUR",25,"IR"
2015-04-14,3453,"b123f95a5578ac2ffb571adb3fd60b023e","EUR",51,"IR"
2015-04-14,3453,"39e18a493b913441c12fac89a09f24958e","EUR",15,"IR"
2015-04-14,3453,"a5ccb1c538e34663a658b1be28b16455ee","EUR",39,"IR"
2015-04-14,3453,"9284d61c8c2ba62b951d501629da26c029","EUR",40,"IR"
2015-04-14,3453,"1bee34b6262a7777362f96e3dd5635764e","EUR",79,"IR"
2015-04-14,3453,"28ac593455c7f44e49e0e5fb2b130739cd","EUR",4,"IR"
2015-04-14,3453,"b9dafef03fc90f65d4f9efd71ce73bb7a0","EUR",30,"IR"
2015-04-14,3453,"953815689985e39a762284426cd5884050","EUR",16,"IR"
2015-04-14,3453,"c4ed8e89485d94f74489c8120a6734bb7a","EUR",84,"IR"
2015-04-14,3453,"4779bc407343d916c5a4f6a99617404641","EUR",85,"IR"
2015-04-14,3453,"b50d427a71ef5f98a1bdd4335b71d381dc","EUR",15,"IR"
2015-04-14,3453,"728bf33aab1d32d4dca8fcc6a020d8baeb","EUR",7,"IR"
2015-04-14,3453,"7e07ae1a0cd3da38f7e619aacacec57799","EUR",23,"IR"
2015-04-14,3453,"b312d5fbcfab403a28f259ab3d2b333ae2","EUR",21,"IR"
2015-04-14,3453,"b5a9ede9a93528be3e12c5665c179c2dc0","EUR",74,"IR"
2015-04-14,3453,"1a5659493256d9eb296edea686b14dfd94","EUR",59,"IR"
2015-04-14,3453,"51054b8a03281fd02034378a5570ae0c97","EUR",61,"IR"
2015-04-14,3453,"85e36899399df701301f6741ffab57962a","EUR",64,"IR"
2015-04-14,3453,"df156e8465ff477c90a1393a0ab5947e44","EUR",1,"IR"
2015-04-14,3453,"73c2e083e4e933fc3ba76abc2bd6aea80c","EUR",74,"IR"
2015-04-14,3453,"e0e3fcdfb0803ca538910c12042cb6232a","EUR",82,"IR"
2015-04-14,3453,"bff3992c1d4f9aa5a7945023e32989d83c","EUR",54,"IR"
2015-04-14,3453,"2f74d62c5e51079f4e0db990f3a44137f3","EUR",30,"IR"
2015-04-14,3453,"6e8d1a943f129896827384a699a11a6bc8","EUR",5,"IR"
2015-04-14,3453,"ee1a7173778d6b708b4e532f6b997fcd54","EUR",85,"IR"
2015-04-14,3453,"a8443b1426652157edc23a7c54fb7ad2c7","EUR",1,"IR"
2015-04-14,3570,"b064bdba191139689139124101c1c39926","EUR",15,"IR"
2015-04-14,3570,"f53f2fb9b99180ea02b1f345b6c862e6bd","EUR",11,"IR"
2015-04-14,3570,"ffd560d182369b08a8b3ed35cfa5ee3cc5","EUR",26,"IR"
2015-04-14,3570,"21eb478c997305f06e5e0d043d3ec5acc6","EUR",75,"IR"
2015-04-14,3570,"aaf57ee8c549ef3df8a07abf3a0df0f028","EUR",53,"IR"
2015-04-14,3570,"5904c93073387f898f4f339094d4bad704","EUR",99,"IR"
2015-04-14,3570,"dae40fcfed8e9ce405c3e0e207ba4781ac","EUR",77,"IR"
2015-04-14,3570,"68e1e435db6ab43fd38ae5df6c6a03b50a","EUR",30,"IR"
2015-04-14,3570,"e133553ea138da0438f229cc2273c76d2e","EUR",47,"IR"
2015-04-14,3570,"6d094db49a6e224278dd87d28835b66af6","EUR",61,"IR"
2015-04-14,3570,"828bb918957379a792e06807bcd291daf3","EUR",13,"IR"
2015-04-14,3570,"fb335e8fd0f8aed3eb6ffedd7fca08259d","EUR",28,"IR"
2015-04-14,3570,"4d0198f4905a08812518045d62dd366a48","EUR",93,"IR"
2015-04-14,3570,"b1e92fe0fa7edab2161fa5090a65e06542","EUR",22,"IR"
2015-04-14,3570,"3033cf66fa728da7a2940d823aad8118fb","EUR",100,"IR"
2015-04-14,3570,"5538e771949ffec150f6e8260b2e380123","EUR",79,"IR"
2015-04-14,3570,"8a8b2d66735ed03d0841027e42d38806ee","EUR",44,"IR"
2015-04-14,3570,"ad8fa913d25b3970c6efa8ca504da8ba67","EUR",12,"IR"
2015-04-14,3570,"6953c2a883537cc80135516935de542987","EUR",33,"IR"
2015-04-14,3570,"b471aeea26820f379ea5ca12029f2788ef","EUR",73,"IR"
2015-04-14,3570,"4652614c4d8778e57a970722f142d83279","EUR",99,"IR"
2015-04-14,3570,"fbb2a73b0bacf3953186a92029e3e9b130","EUR",62,"IR"
2015-04-14,3570,"46d4c7c3285e2d04cbf9d55aa79142a277","EUR",85,"IR"
2015-04-14,3570,"debc96817a3523d6f3cde58b00abaf6480","EUR",79,"IR"
2015-04-14,3570,"e6d3cee8c029277da8d978deb058e43540","EUR",35,"IR"
2015-04-14,3570,"7f5642cd0c851c48e5dfbd492e1cdee9a9","EUR",13,"IR"
2015-04-14,3570,"eef79a6a04f78a54832c8891ed83f48638","EUR",57,"IR"
2015-04-14,3570,"084917af148384c1e8396addcec2fca2a9","EUR",34,"IR"
2015-04-14,3570,"b22eb34537f6f6753da6e0dc05713be0cc","EUR",95,"IR"
2015-04-14,3570,"835cc509d6d86a3a287de70581b43415ae","EUR",46,"IR"
2015-04-14,3570,"2f1d593cd98cb5bf81eb9d880221122342","EUR",97,"IR"
2015-04-14,3570,"339d9d13edbaa267cb977f39e0a9da194e","EUR",48,"IR"
2015-04-14,3570,"40a7ae9a07a94bf510c89d41b034787f76","EUR",20,"IR"
2015-04-14,3570,"d6420a4ee44bc345c7bf3a2efbab98e08a","EUR",64,"IR"
2015-04-14,3570,"16b30490a644117a249c2018f31f7d29d2","EUR",60,"IR"
2015-04-14,3570,"ce7d916f3b5c6edb421222b8e3b4c69f21","EUR",47,"IR"
2015-04-14,3570,"98964da49d0a98402ed3d2d37b3350cf0a","EUR",58,"IR"
2015-04-14,3570,"3658d7fa3c43456f3c9c87db0490e87203","EUR",42,"IR"
2015-04-14,3570,"c24cf8d31cf7e596ba052b7ed00f169b1c","EUR",73,"IR"
2015-04-14,3570,"51cfe39433c33d8144a4d4663e3834ca23","EUR",77,"IR"
2015-04-14,3570,"0aa598c735f77296910c9b61658e9411d3","EUR",28,"IR"
2015-04-14,3570,"3cb65cad26f0a517866e06dcba59afa4a5","EUR",91,"IR"
2015-04-14,3570,"3837e1aa083f578c9179bdd9e3b2b0ebe9","EUR",23,"IR"
2015-04-14,3570,"759b87b87ba0c0c701d14eb2e6e3156092","EUR",54,"IR"
2015-04-14,3570,"8590ac062555493444893ec5871609dffe","EUR",35,"IR"
2015-04-14,3570,"38879b6376fbabdc8fbfb85f6b11a296ac","EUR",12,"IR"
2015-04-14,3570,"aaf5060b9517ba4f550ee34a7f3ed7b05b","EUR",93,"IR"
2015-04-14,3570,"dff17949eb4f9ecd9361bb97c38a9404f3","EUR",37,"IR"
2015-04-14,3570,"fbe10beedf9d29cf53137ba38859ffd1db","EUR",75,"IR"
2015-04-14,3570,"72805ff7c0f210f3aa6e66f3f208974437","EUR",45,"IR"
2015-04-14,3611,"70d432707ec2478670d5b36a95d5b1000c","EUR",58,"IR"
2015-04-14,3611,"2c3f699f4b5f7734ed802c0b52f27f6707","EUR",3,"IR"
2015-04-14,3611,"55c8079ac96c6a4f6a94e3460c79e4006d","EUR",18,"IR"
2015-04-14,3611,"ba9c5622470525f1bbed5f36077631df50","EUR",49,"IR"
2015-04-14,3611,"926a7fc32c08e49183ba9969eb0fe284d7","EUR",16,"IR"
2015-04-14,3636,"fe50b64954720ccb97ff36a6bd105b6c60","EUR",28,"IR"
2015-04-14,3636,"25b7c81e770034aeda70db74af0fb638be","EUR",21,"IR"
2015-04-14,3636,"c0d2d188feaa1562d9a1ca041b28896773","EUR",86,"IR"
2015-04-14,3636,"40fb7164e459a38813f304e3b45db2b074","EUR",85,"IR"
2015-04-14,3636,"8c004c94eb689b3765ccb51f03e1aa3392","EUR",54,"IR"
2015-04-14,3709,"abbb9233cee3e720b2a86acf4ad04e51a6","EUR",31,"IR"
2015-04-14,3709,"3292bef42975c0ab63a2e9ab72143d6e26","EUR",65,"IR"
2015-04-14,3709,"864995ea35b82212a9a2d456a3f89833f2","EUR",73,"IR"
2015-04-14,3709,"462c39f8e9bbf461369150222f7493055e","EUR",66,"IR"
2015-04-14,3709,"83cf8b609de60036a8277bd0e96135751b","EUR",91,"IR"
2015-04-14,3844,"40510175845988f13f6162ed8526f0b09f","EUR",16,"IR"
2015-04-14,3844,"fe675fe7aaee830b6fed09b64e034f84dc","EUR",51,"IR"
2015-04-14,3844,"b281bc2c616cb3c3a097215fdc9397ae87","EUR",83,"IR"
2015-04-14,3844,"8c9a013ab70c0434313e3e881c310b9ff2","EUR",93,"IR"
2015-04-14,3844,"75992a5ac67ff644d3063976c2effd10bd","EUR",25,"IR"
2015-04-14,3946,"7f861bcee185de001377d79e08af62e94b","EUR",97,"IR"
2015-04-14,3946,"478c4ffb1cbcea37956a748e6c19d8eadd","EUR",52,"IR"
2015-04-14,3946,"2c8b871e52d4e5f5db5ff84a82a45327e2","EUR",54,"IR"
2015-04-14,3946,"9aaf689fbcdfe9f64a071f9cbe28ae4419","EUR",79,"IR"
2015-04-14,3946,"6ad4a6b1e5ea5569795e516d71909e0ce4","EUR",96,"IR"
2015-04-14,4087,"7a5df5ffa0dec2228d90b8d0a0f1b0767b","EUR",24,"IR"
2015-04-14,4087,"3dd9c0995d54c0abd51a90f1d57b1ce77b","EUR",96,"IR"
2015-04-14,4087,"165940940a02a187e4463ff46709093003","EUR",72,"IR"
2015-04-14,4087,"2ec42bc1f3e672fc1cf7fdcfc23246415d","EUR",41,"IR"
2015-04-14,4087,"df4865fca1f159162557359ef967f95020","EUR",26,"IR"
2015-04-14,4088,"9553627933b214db60798fe40d2b4f8497","EUR",92,"IR"
2015-04-14,4088,"ef32cc5c2b7c62093d3ec4844b36a02b08","EUR",18,"IR"
2015-04-14,4088,"b0ab628c9e14621846c58b4eb35060ef38","EUR",80,"IR"
2015-04-14,4088,"9989a37538faecc495bbe774b30fb447a1","EUR",92,"IR"
2015-04-14,4088,"61ab550f4c85a975cd46f8606ede483d8e","EUR",83,"IR"
2015-04-14,4142,"f296867839c8befafed32b55a7c11ab4ad","EUR",99,"IR"
2015-04-14,4142,"cdad86ca9450d1c143675a8436131cabaf","EUR",6,"IR"
2015-04-14,4142,"f00f2e7bca65e9f8409fdb3bcddfa03166","EUR",22,"IR"
2015-04-14,4142,"6629ddae3736e894e89cb4a1300a9d2c5c","EUR",100,"IR"
2015-04-14,4142,"e39eef82f61b21e2e7f762fcc4307358f1","EUR",54,"IR"
2015-04-14,4142,"46372791018924b8cbc444334300f85a21","EUR",70,"IR"
2015-04-14,4142,"582c0168ba17eac49642bc85ae62320406","EUR",89,"IR"
2015-04-14,4142,"60f256c7ccbc748036024fa0440e45fe15","EUR",39,"IR"
2015-04-14,4142,"a73060afb61efe1b7c817645d00c342df0","EUR",31,"IR"
2015-04-14,4142,"d9a5223b761c375d1263e6e57ebec42d3e","EUR",78,"IR"
2015-04-14,4142,"2f1987bf98c09d2f5d2a23a6ae29fa53b9","EUR",21,"IR"
2015-04-14,4142,"3e34b5dc434bcf3186f089d362691cfac1","EUR",94,"IR"
2015-04-14,4142,"340ab11db8d1a7435cb4b4a0492a9eee7b","EUR",41,"IR"
2015-04-14,4142,"f8b7291025863577c250b562e8aa0d7a70","EUR",59,"IR"
2015-04-14,4142,"6719009a76851c4bed2fcdea10b635c1bd","EUR",37,"IR"
2015-04-14,4142,"f46733e1619957ff5bb51ea0272a2d8d73","EUR",97,"IR"
2015-04-14,4142,"56cc29cee9e859a5314952b8184da882e2","EUR",17,"IR"
2015-04-14,4142,"920c37d6464a8f20e8930c1980560dfd8a","EUR",100,"IR"
2015-04-14,4142,"0c1c43111448b131d65b3b380041de26f2","EUR",94,"IR"
2015-04-14,4142,"00037f39cf870a1f49129f9c82d935665d","EUR",47,"IR"
2015-04-14,4142,"0d21ae129a64e1d19e4a94dfca3a67c777","EUR",48,"IR"
2015-04-14,4142,"8c6c42f379f08f03b79653a3230abd5e80","EUR",75,"IR"
2015-04-14,4142,"216da54b5931a6d37cca8e29953361fe02","EUR",12,"IR"
2015-04-14,4142,"c0aa4a0be7ba28399b09a68835a21755f4","EUR",3,"IR"
2015-04-14,4142,"a0a531122de465614efef1078901475b2d","EUR",44,"IR"
2015-04-14,4142,"40794500a2845c943a0f4910461d9c3986","EUR",44,"IR"
2015-04-14,4142,"6db44caad5c968a5ec334024daa615d299","EUR",62,"IR"
2015-04-14,4142,"025ca19d7b07d7f554fd7cd060b628e628","EUR",7,"IR"
2015-04-14,4142,"6d6ae523edc27b235030584adf12a890bf","EUR",3,"IR"
2015-04-14,4142,"0c62cc42d6479a691f03083654ab6a7a84","EUR",52,"IR"
2015-04-14,4142,"ffa6059b954a4602a9fa1518d10ca6163b","EUR",85,"IR"
2015-04-14,4142,"11382b8de6b4b042f25bf021335d31c09f","EUR",48,"IR"
2015-04-14,4142,"d8b5e2791d0d1cee319ee3def0e4631852","EUR",79,"IR"
2015-04-14,4142,"285b71922aaa01d870483d3b4f59e4a61c","EUR",63,"IR"
2015-04-14,4142,"7d7179c146d0d6af4ebd304ab799a718fe","EUR",65,"IR"
2015-04-14,4142,"02abf8fa7d9c4db035df33acba2dcd495a","EUR",27,"IR"
2015-04-14,4142,"e8c5e943ad4fd9d115c2baacd110acddee","EUR",36,"IR"
2015-04-14,4142,"b910260d6ccd1fedb9919e9974c4b1eacf","EUR",68,"IR"
2015-04-14,4142,"fb5316204aa75301303e70a2e9555cf9cb","EUR",43,"IR"
2015-04-14,4142,"12051e9967d26fabc3b319b06be4bb57b5","EUR",5,"IR"
2015-04-14,4142,"8dfd13f4376053626e97eb7221d469013c","EUR",49,"IR"
2015-04-14,4142,"5d9e09b09389f1e4c8268e5464bfce4c9e","EUR",21,"IR"
2015-04-14,4142,"ae4def1ecaae8be24edf7f6453e37f7200","EUR",31,"IR"
2015-04-14,4142,"0fe39b99b379952df916ed88c169ec6375","EUR",91,"IR"
2015-04-14,4142,"0087cf99a4636ebd9a0f66eaf98fde8bca","EUR",91,"IR"
2015-04-14,4142,"4f95c3cf2c7c5bb500102f36abe7f477de","EUR",84,"IR"
2015-04-14,4142,"eab8ff114cc63fd8ab3d9f42249e20b8ce","EUR",55,"IR"
2015-04-14,4142,"f48280c0107726b99afcbd3cd0a46a2bac","EUR",74,"IR"
2015-04-14,4142,"0f0b82fae280ae9fec1905f029b6ee9a9c","EUR",83,"IR"
2015-04-14,4142,"2ff2a721fab172f1ab7e77774978c69889","EUR",71,"IR"
2015-04-14,4241,"d0f451801443fa1478e1cf080e8d63dead","EUR",83,"IR"
2015-04-14,4241,"34be1021b378c5701b4dd1430970982e0d","EUR",89,"IR"
2015-04-14,4241,"f8b2f96ed09b16bfd24ff625c064408fe1","EUR",28,"IR"
2015-04-14,4241,"be1722b1d104ffb2753260682954754d97","EUR",20,"IR"
2015-04-14,4241,"fde3f2e7127f6810eb4160bf7bb0563240","EUR",97,"IR"
2015-04-14,4241,"337b02741a9561b611d394e835278d377c","EUR",32,"IR"
2015-04-14,4241,"61dbec1d67afe651537e012d2327f6b469","EUR",24,"IR"
2015-04-14,4241,"bcce03f625c22998dcb812feb157db59cb","EUR",3,"IR"
2015-04-14,4241,"d88c39de46401a311ffda92d37930b4a54","EUR",69,"IR"
2015-04-14,4241,"de2d0a787b3351763f3c1a45aca2d08ad0","EUR",73,"IR"
2015-04-14,4241,"32eb1a8dafeb0873c8d00b0e9058c8c77f","EUR",11,"IR"
2015-04-14,4241,"e18037f42fd038fa9b51c6234fa4f332fa","EUR",26,"IR"
2015-04-14,4241,"3ef58410b868298fcca4ee41144221bf86","EUR",81,"IR"
2015-04-14,4241,"1090b9e9eba719a3f27dfa49de49497271","EUR",78,"IR"
2015-04-14,4241,"9fbb55aa1ca6da90db1c9914bc0960ad0d","EUR",46,"IR"
2015-04-14,4241,"0c0ad5934ba82dd287896d6406d1428b9e","EUR",24,"IR"
2015-04-14,4241,"084ae23e6996e701addeeb7dcf33696f32","EUR",53,"IR"
2015-04-14,4241,"c6d537e112156be1afbb8a5a85221ff4d9","EUR",26,"IR"
2015-04-14,4241,"9dacbde326501c9f63debf4311ae5e2bc0","EUR",62,"IR"
2015-04-14,4241,"8cf04f0d07191f042b1d11880ab80618c2","EUR",13,"IR"
2015-04-14,4241,"b7768fbb1847758d75c3ee28c3e2391e70","EUR",66,"IR"
2015-04-14,4241,"11bde34a6593b3da0d81a8a71b24dc6f6c","EUR",33,"IR"
2015-04-14,4241,"5f302d143dace627a6a87157fd1362b010","EUR",98,"IR"
2015-04-14,4241,"1ff7b91c979ea344298826c212adf74578","EUR",81,"IR"
2015-04-14,4241,"f1250af9005fb93c6bc8ea65860a4079e4","EUR",87,"IR"
2015-04-14,4241,"e0d8014e6e3c51d780465166f0ed7faf81","EUR",17,"IR"
2015-04-14,4241,"8352dd9eb8b64669e0a8347fd37ae6e5cd","EUR",64,"IR"
2015-04-14,4241,"235aa062e6372588dbae00552abf36b8ff","EUR",92,"IR"
2015-04-14,4241,"4aec429ac0bfafdbb8dab14f41d1b7a98d","EUR",25,"IR"
2015-04-14,4241,"330e14d4ae80612334d94c488d29eb4696","EUR",68,"IR"
2015-04-14,4241,"ab9828ca390581b72629069049793ba3c9","EUR",21,"IR"
2015-04-14,4241,"36ab771eba23f49d7ae43af88c601f3de8","EUR",89,"IR"
2015-04-14,4241,"277375b99e186c72ac38ac47b031990383","EUR",72,"IR"
2015-04-14,4241,"f0d588a225e6e6ba0501a3f787230abf57","EUR",47,"IR"
2015-04-14,4241,"d74fe97872d8a425b5263add13d51a1066","EUR",44,"IR"
2015-04-14,4241,"47c5fbf51c636da0b48309ad799e2e4d04","EUR",88,"IR"
2015-04-14,4241,"fb7bab9edf08f024aabf3501518399e82a","EUR",42,"IR"
2015-04-14,4241,"86cb35a822329fe1de40eb82a1791be1f6","EUR",46,"IR"
2015-04-14,4241,"737c6b9773fa031bee4787ad780d2c9c9e","EUR",11,"IR"
2015-04-14,4241,"6711597a2bc4e5878638c2115353f0792a","EUR",69,"IR"
2015-04-14,4241,"055f78940c07630352676197ab7c3ed8d5","EUR",8,"IR"
2015-04-14,4241,"0ffe1abd1a08215353c233d6e009613e95","EUR",86,"IR"
2015-04-14,4241,"fe91a760983d401d9b679fb092b689488d","EUR",67,"IR"
2015-04-14,4241,"b7e307660e1611cb42bcb28e4bb4a6465c","EUR",53,"IR"
2015-04-14,4241,"793a84a351bd364d2f0323b67b39407711","EUR",65,"IR"
2015-04-14,4241,"71af0fdd2e7f62c1c351432a69fdf8f657","EUR",81,"IR"
2015-04-14,4241,"10e35e8e93e91e58b54af372922fe86028","EUR",2,"IR"
2015-04-14,4241,"e1d9ce80c3abd825263ac199b82e1e2943","EUR",30,"IR"
2015-04-14,4241,"63ecbfa3a1ad34a1fdd5e3dd3aeaec3145","EUR",12,"IR"
2015-04-14,4241,"b280279a0ef279d0b9f0bdc4162591dbbc","EUR",70,"IR"
2015-04-14,4437,"829f00a11ddfdebb51b67a913981eddb79","EUR",82,"IR"
2015-04-14,4437,"3958de59a1ae60b4330e99d6a5b7918977","EUR",7,"IR"
2015-04-14,4437,"b3282a2f2a28757b3a18ab833de16a9c54","EUR",18,"IR"
2015-04-14,4437,"4739ee3bd29e4f415da8ba9298a087e0fd","EUR",30,"IR"
2015-04-14,4437,"736e537f0f664a3d8208e88c114f2c5a16","EUR",57,"IR"
2015-04-14,4624,"ed053874ca199cc53e11c9f4aeaeccd07d","EUR",8,"IR"
2015-04-14,4624,"5817ae4948371f9b6b7d94615c0704e6a1","EUR",23,"IR"
2015-04-14,4624,"7377a71607a8dabc029ab10e7a6a895b92","EUR",30,"IR"
2015-04-14,4624,"94c47d91f1bebd7b85fb5b4210cb24a812","EUR",27,"IR"
2015-04-14,4624,"e9ab39f01d431c5250493a3dc493bba9c4","EUR",31,"IR"
2015-04-14,4624,"78c0781a0697b8212d21711580c2c60616","EUR",18,"IR"
2015-04-14,4624,"af6b495dd2d7c1174d63ec26b36a86cf4b","EUR",90,"IR"
2015-04-14,4624,"e754478c35f2708c5d0bf28696b44f1bcf","EUR",26,"IR"
2015-04-14,4624,"7a99d42d79e9bafeaa5ccedaf0135267da","EUR",73,"IR"
2015-04-14,4624,"6cc6eefb674286f7d1a0e4adaa840670da","EUR",62,"IR"
2015-04-14,4624,"d7008e68b135c3c77bdf98063491d09b02","EUR",70,"IR"
2015-04-14,4624,"35ca46713cea7233ec955b340b044a9867","EUR",36,"IR"
2015-04-14,4624,"96be21608a6aa9d2424e4af66984baf4a3","EUR",65,"IR"
2015-04-14,4624,"41966e55400c17d811391ad507c6af707e","EUR",30,"IR"
2015-04-14,4624,"5b64147d2864c61f08bdd4fb85c70d4d26","EUR",1,"IR"
2015-04-14,4624,"bc10b57514d76124b4120a34db2224067f","EUR",17,"IR"
2015-04-14,4624,"434dbd07bc54f593ede0fe8e4d0b93a7f9","EUR",7,"IR"
2015-04-14,4624,"73401dfc9377b9ed6ea5a996cbde303cc3","EUR",38,"IR"
2015-04-14,4624,"a183251a8414fd819da06488541d523365","EUR",61,"IR"
2015-04-14,4624,"28fdc24c9abb066ea7343dc47c79a7cce1","EUR",88,"IR"
2015-04-14,4624,"a5bef651c8e3fd6cc63c43cd6bc1341af9","EUR",85,"IR"
2015-04-14,4624,"0b36980af5c0346a818b88693526bc0deb","EUR",79,"IR"
2015-04-14,4624,"7987e36c43f067b54276ccb5f72d4d495d","EUR",86,"IR"
2015-04-14,4624,"542cacae1d41132ac9e10320dc19210336","EUR",3,"IR"
2015-04-14,4624,"3b2252403733f1c121b735f144853af40c","EUR",8,"IR"
2015-04-14,4624,"0eaa69a16d7c358a329a7111a809bd2f9a","EUR",52,"IR"
2015-04-14,4624,"a3ab7bbaf7390c1faafb17a4075a3a6338","EUR",49,"IR"
2015-04-14,4624,"a367613375c7fcd7402955ec5143e20894","EUR",46,"IR"
2015-04-14,4624,"c28474616c0273f299e922da2138b3ba79","EUR",27,"IR"
2015-04-14,4624,"06ec44ccee3b23b9e067e96afb796d3b8d","EUR",46,"IR"
2015-04-14,4624,"37b1267a4ff4e12dddfe443810c1f986dc","EUR",38,"IR"
2015-04-14,4624,"3aa82834b765ea0421465a785c356dea16","EUR",28,"IR"
2015-04-14,4624,"76bf061a545d61832da4a5cdb72f1fab54","EUR",78,"IR"
2015-04-14,4624,"589302a339e5059513c12b404e3dd270ff","EUR",41,"IR"
2015-04-14,4624,"118a91dd9d8f92a02d5ddc7881e260ba24","EUR",58,"IR"
2015-04-14,4624,"77523aa0395b6ee089984c28fd54375524","EUR",52,"IR"
2015-04-14,4624,"f1de64eac803d9604ccb03ec7734b0e0ee","EUR",64,"IR"
2015-04-14,4624,"7ec62885a6b7777a7d9cab7f236a96f233","EUR",72,"IR"
2015-04-14,4624,"998bae6a40b82ac12dd182fbb3bd6bbbc4","EUR",69,"IR"
2015-04-14,4624,"9e468662812f45d0558e113a4b263fe79a","EUR",81,"IR"
2015-04-14,4624,"28dbec0e0501d3cc564103ed9c269ef959","EUR",77,"IR"
2015-04-14,4624,"7d86b48acdec123e6c4bdb0031bfa9be74","EUR",4,"IR"
2015-04-14,4624,"972fb81a3b9e6076bb06207a2687f1f1d1","EUR",40,"IR"
2015-04-14,4624,"68ac846d8dc1c75da907a425479be9ddf7","EUR",66,"IR"
2015-04-14,4624,"36d144ea081f24500bf72163ccde3d4748","EUR",56,"IR"
2015-04-14,4624,"19d0b0d4077454bdec0d553cc96ce82295","EUR",1,"IR"
2015-04-14,4624,"e361ec1ff521cfdb913fbfeb831a2ae6d8","EUR",7,"IR"
2015-04-14,4624,"02ede7e8caf71df40a5bb6495f5fcbc092","EUR",86,"IR"
2015-04-14,4624,"0e6801798cea548d4bdb92af10e38939f5","EUR",41,"IR"
2015-04-14,4624,"973d94870ea2543da0aed1ebb95f8224c6","EUR",3,"IR"
2015-04-14,4749,"56626ff45dd863da4148044fe8f8dd4594","EUR",68,"IR"
2015-04-14,4749,"74e9f3d8efbda803994e08efba32440782","EUR",78,"IR"
2015-04-14,4749,"66c2e6dd7fe34b78c205baeea6f8216733","EUR",62,"IR"
2015-04-14,4749,"59a6d3288187dfcd54bb45d3ab2d4f0736","EUR",61,"IR"
2015-04-14,4749,"ed07bf12b8fe09324c8bc24c6738e1a8fd","EUR",80,"IR"
2015-04-14,4929,"2c58b3a68ac99f845a207a613ce245b3fd","EUR",50,"IR"
2015-04-14,4929,"0252b081bda70b478f0131b310a93cb8d7","EUR",94,"IR"
2015-04-14,4929,"c7b96125d8bb1b5ac26f057909f1a29dcd","EUR",9,"IR"
2015-04-14,4929,"48e1ff78f2967629663434954e7034e9a1","EUR",72,"IR"
2015-04-14,4929,"d40535ac09aac0ef32f8a23b8bb8e04bc2","EUR",9,"IR"
2015-04-14,5056,"efec9aaf21433bf806e7681de337cac7db","EUR",95,"IR"
2015-04-14,5056,"274897360371d52c0d6f5e7dcc285f914c","EUR",49,"IR"
2015-04-14,5056,"ca153fc499ffc25f1118ad5e58ff242584","EUR",51,"IR"
2015-04-14,5056,"b62764dc19af7e6a2fd312662a2fe207d2","EUR",46,"IR"
2015-04-14,5056,"e9ef91d2836a3d6a880c71604dda2bc5cf","EUR",90,"IR"
2015-04-14,5056,"58eb0dd988df36c54ae88fcf58afcd0a69","EUR",53,"IR"
2015-04-14,5056,"941b74661161da4ada37e53ac991b085d6","EUR",89,"IR"
2015-04-14,5056,"26c151f9669f97e9117673c9283843f75c","EUR",63,"IR"
2015-04-14,5056,"6bd44ccbcb332868f388c5e513b138cad3","EUR",10,"IR"
2015-04-14,5056,"6d6e1059500ddb11aefec9d93e6847aab6","EUR",54,"IR"
2015-04-14,5056,"32396038fca01cb69d2c44b0964624d1fe","EUR",58,"IR"
2015-04-14,5056,"369b906a75d372193bbe4afb088078fa9e","EUR",10,"IR"
2015-04-14,5056,"f343a80aafa11416dbea660c9adb572898","EUR",51,"IR"
2015-04-14,5056,"c18a8ad752fb7e649161dcabed2d1fb96f","EUR",27,"IR"
2015-04-14,5056,"7123d367e354baefc7131376b2e3bbab10","EUR",26,"IR"
2015-04-14,5056,"15197cf7214b58e67cae565e573ffd9aa4","EUR",37,"IR"
2015-04-14,5056,"3b47492744946d5a188be73c702fb2e3cd","EUR",36,"IR"
2015-04-14,5056,"da26b77becf8bcc17aa4e59a0205d89103","EUR",45,"IR"
2015-04-14,5056,"7ac25d5d84cae3dcc037c52a93dfe320fe","EUR",98,"IR"
2015-04-14,5056,"0af7d7158becc6d02dc41536107090e771","EUR",40,"IR"
2015-04-14,5056,"2cec8cf0e321c284fa0c2ebef804aac18b","EUR",91,"IR"
2015-04-14,5056,"9a20ae78840d1a444686d7ef12f6208288","EUR",95,"IR"
2015-04-14,5056,"eaf2067e34d6876930d2b304db688ab6b9","EUR",65,"IR"
2015-04-14,5056,"12b637dd6a40e81118a123a7dde7d54c58","EUR",93,"IR"
2015-04-14,5056,"fd68fcf88c30b4df82ec214bb6b559ede1","EUR",97,"IR"
2015-04-14,5056,"45297c633d331e6ac35169ebaaf75bc7fa","EUR",29,"IR"
2015-04-14,5056,"2ecefe59ab6ae4e734bb1adec3bbb706be","EUR",61,"IR"
2015-04-14,5056,"cbfad02f9ed2a8d1e08d8f74f5303e9eb9","EUR",71,"IR"
2015-04-14,5056,"de3d43caad2bd3c4f0622fc60deecd06b3","EUR",72,"IR"
2015-04-14,5056,"585579aed1c5241bcec5569704f0863f09","EUR",34,"IR"
2015-04-14,5056,"e7faa8b075ab5b412691a8b097ebfee4bb","EUR",45,"IR"
2015-04-14,5056,"2b36364b92fdfed9c63879bf2b415b1beb","EUR",14,"IR"
2015-04-14,5056,"cb69775effd93fc34ef38dfbfcdc4c593b","EUR",44,"IR"
2015-04-14,5056,"f5efb6e05e55f7eda6e88bec2eec69e6e2","EUR",19,"IR"
2015-04-14,5056,"53f4041ba0cc8ed13c5a119242af44e601","EUR",67,"IR"
2015-04-14,5056,"f79b8977720743f5e7c8b5b2e3813a8a4c","EUR",86,"IR"
2015-04-14,5056,"46437ab18a6657040b4535297ff247b20c","EUR",60,"IR"
2015-04-14,5056,"16a3e9e922b41fde13be3ae377b18e08d4","EUR",43,"IR"
2015-04-14,5056,"fa3cfb3f1bb823aa9501f88f1f95f732ee","EUR",4,"IR"
2015-04-14,5056,"0d866ba9f9fd0f2cbb2134daf52356d202","EUR",69,"IR"
2015-04-14,5056,"6ecf763ff6e7cef7b47e6611e1bf76fe26","EUR",16,"IR"
2015-04-14,5056,"e66f404f78b6875bb24ff40d80d21b7841","EUR",35,"IR"
2015-04-14,5056,"eeafcf2e9d8037ab51da8788043fdd0829","EUR",80,"IR"
2015-04-14,5056,"6dfb97632210ac38a071667cf8be7df83a","EUR",100,"IR"
2015-04-14,5056,"ee932b02fc14995ab1085f9c686b916d3d","EUR",27,"IR"
2015-04-14,5056,"22a2fa7d04248931a8853a7714b8654661","EUR",65,"IR"
2015-04-14,5056,"52a6eb687cd22e80d3342eac6fcc7f2e19","EUR",45,"IR"
2015-04-14,5056,"b6602f58690ca41488e97cd28153671356","EUR",58,"IR"
2015-04-14,5056,"4654d793972c3b6a1d48fb0ab58d9cb0de","EUR",100,"IR"
2015-04-14,5056,"03ac674216f3e15c761ee1a5e255f06795","EUR",86,"IR"
2015-04-14,5151,"310ced37200b1a0dae25edb263fe52c491","EUR",61,"IR"
2015-04-14,5151,"7b0838c2af7e6b1f3fe5a49c32dd459d99","EUR",51,"IR"
2015-04-14,5151,"a7ef9d0560e2144949045a322a88b84796","EUR",51,"IR"
2015-04-14,5151,"8de143c7e8ffc2a50d4910226e43210686","EUR",24,"IR"
2015-04-14,5151,"f97350101e1a9de922bdbb762a33695234","EUR",23,"IR"
2015-04-14,5151,"1c00e16c0db1f129d7b8b87fad27646fdf","EUR",49,"IR"
2015-04-14,5151,"1a08785d4897bde6665ece8ff85cc53901","EUR",75,"IR"
2015-04-14,5151,"550018524a55c47b54067a7454e1b6f65f","EUR",3,"IR"
2015-04-14,5151,"8c454536b6e2b8b29a1d839aa3c5ccf0ab","EUR",26,"IR"
2015-04-14,5151,"aedec0d0ca66f380aed5fa5634c513c1bd","EUR",15,"IR"
2015-04-14,5151,"8c244b370747c1930a4e0967254778ddbb","EUR",18,"IR"
2015-04-14,5151,"cf3ff1a00fa1836509df654dd27e81bd2e","EUR",88,"IR"
2015-04-14,5151,"92f3c34650437f1ddf6b2f2e3f4d240e6e","EUR",8,"IR"
2015-04-14,5151,"da2c575e48ee7651b9e99a511216b827ef","EUR",79,"IR"
2015-04-14,5151,"4579e127cc265d745b89f77b7e266e9e8c","EUR",32,"IR"
2015-04-14,5151,"dfcafae694259c719203dd502252ab975b","EUR",12,"IR"
2015-04-14,5151,"ea80b523f4585374b7c94e7b9b420166e8","EUR",41,"IR"
2015-04-14,5151,"788181d3e6c41241e68b21d3b3826e3d2c","EUR",62,"IR"
2015-04-14,5151,"f2adeac9190ca809f50201695117e73b72","EUR",75,"IR"
2015-04-14,5151,"665cb02ac3b3b46848dff3760744b8c877","EUR",36,"IR"
2015-04-14,5151,"3f9eb849d10083d521abdb950e6ac4084b","EUR",100,"IR"
2015-04-14,5151,"e7d5f7be5195d60646a43ebfa0c38f0451","EUR",47,"IR"
2015-04-14,5151,"92abb80a9a9b828aeeef27efa528a247f9","EUR",94,"IR"
2015-04-14,5151,"d8ed8ca27d83a63df6982905ea53b4613b","EUR",64,"IR"
2015-04-14,5151,"b32523d903bfe2355dca166631f0ed936c","EUR",35,"IR"
2015-04-14,5151,"9c19f29d0e6fefa21eec58f6ff4d0cf807","EUR",2,"IR"
2015-04-14,5151,"b81d00e65f747a4161b56ab92f400b8186","EUR",71,"IR"
2015-04-14,5151,"16e18ac98844452e0eba34f615bdeaad8b","EUR",57,"IR"
2015-04-14,5151,"51e1424eeb514560081905811593feb19b","EUR",31,"IR"
2015-04-14,5151,"ccc6742d528e7ca27cf37d49f4e9a2679d","EUR",78,"IR"
2015-04-14,5151,"23b0cc711cca646227414df7e7acb15e87","EUR",63,"IR"
2015-04-14,5151,"f7d7736a8f77a494064203eda8d618bb0c","EUR",27,"IR"
2015-04-14,5151,"ec216fb204db213fecf8a4a72363a84fc9","EUR",13,"IR"
2015-04-14,5151,"3bad45f2cc9f047e72cd5cf44eabbd27bf","EUR",39,"IR"
2015-04-14,5151,"6028e2a87c5080933ca436888c9d26630d","EUR",30,"IR"
2015-04-14,5151,"93654b454b7bc1eea6739e8ca279d028a9","EUR",63,"IR"
2015-04-14,5151,"efbd1f26a54875e39972ccf7fa21a34f24","EUR",22,"IR"
2015-04-14,5151,"c676b6e9a4ca6b5ac36368e46b51915a0f","EUR",52,"IR"
2015-04-14,5151,"7deef068fe937f6dcc2098c04bfea86398","EUR",68,"IR"
2015-04-14,5151,"f8726da5732fa9095e0129c6c25619a35d","EUR",5,"IR"
2015-04-14,5151,"a1bb364ad3761439e83376289d6656aaab","EUR",44,"IR"
2015-04-14,5151,"c8bcad7f2864e0f66e4f8441c5547e899d","EUR",34,"IR"
2015-04-14,5151,"7cbc1f697e71f94e5e4871b5d4e89420f2","EUR",16,"IR"
2015-04-14,5151,"fa9b1cc5d156de5b6ebd583ff1fe2c178f","EUR",27,"IR"
2015-04-14,5151,"f478525457dcd5ec6223e52bd3df32d1ed","EUR",10,"IR"
2015-04-14,5151,"6f13d39f5c4665967f7df9f2f7311187fd","EUR",22,"IR"
2015-04-14,5151,"c2a824544a0afd72c9bfe30643efd67fa7","EUR",76,"IR"
2015-04-14,5151,"3ac84a052226066874f36ca9dfddd1639d","EUR",24,"IR"
2015-04-14,5151,"c47affb712a521d4fdd0d9af6cb0e4d455","EUR",55,"IR"
2015-04-14,5151,"da9570a2a77104e59f0185cff795f508d2","EUR",15,"IR"
