C_DAY,C_ID,C_TYPE,C_ORIGIN_DATE,C_REL_DATE,C_LEGAL_ID,C_NAME
2015-04-28,67,"P",1972-02-28,2006-08-11,"97912a4321dd510","49d180ecf56132819571bf39d9b7b34"
2015-04-28,171,"P",1941-02-04,2014-09-21,"1c5d0cb4dfa3230","284de502c9847342318c17d474733ef"
2015-04-28,343,"P",1948-02-10,1976-04-09,"78ab011ae682558",
2015-04-28,459,"B",1946-02-08,,"1b3a4eeb3803dcc","42f0bec3310ddd8a55e8d62817337ca"
2015-04-28,485,"B",1959-02-18,1969-08-05,"191ff9d07112f0b","5844a72aee9269a68da28cae55c706d"
2015-04-28,595,"B",1918-01-18,1948-08-31,"d0d66fea995d923","a3aaf5a0e9ad2901ab35ce73910be7f"
2015-04-28,603,"B",2014-03-31,2014-06-03,"db112e14c67ae4e","97468f679ad305fa4dbbf17fd4bf18c"
2015-04-28,675,"B",1947-02-09,1953-03-11,"bca82057a0ef83c","a440868cf4311953cb45c7ded936000"
2015-04-28,794,"P",1963-02-21,1981-02-27,"e656f2979569938","5283f1b4e66467616feca1e0162c7d3"
2015-04-28,872,"P",1936-02-01,1944-02-24,,
2015-04-28,1069,"B",1992-03-14,1998-12-22,"767b465181d2105","2ff2a721fab172f1ab7e77774978c69"
2015-04-28,1184,"P",1953-02-13,,"7d813d024954469","d40535ac09aac0ef32f8a23b8bb8e04"
2015-04-28,1187,"P",1949-02-10,1981-12-06,"a7f0363b280a11a","ca153fc499ffc25f1118ad5e58ff242"
2015-04-28,1232,"P",1984-03-08,2004-06-23,"d4a77760a677523","b6602f58690ca41488e97cd28153671"
2015-04-28,1338,"P",1952-02-13,1995-09-05,"152fae807416ece","929335bd815765d7b6766e83703418a"
2015-04-28,1473,"P",1963-02-21,1980-02-08,"7c330d9fa136bf8","33bf4329c846019957cdba15fd5767d"
2015-04-28,1642,"B",1970-02-26,1976-06-23,"5a2ffe01f2104cf","b5740f0e88bf42cdae45c073ea5c170"
2015-04-28,1743,"P",1931-01-28,1960-05-12,"ae7a4f42f7b89f3",""
2015-04-28,1910,"B",1960-02-19,,"93bdd4061b6cd0c","a64332fe1df1790cb79d428bf5b5767"
2015-04-28,1918,"B",1974-03-01,1992-05-21,"79bccf4b498395c","54e87e2783378cd883fb63bea84e2ec"
2015-04-28,1978,"B",1985-03-09,1993-02-07,"cf701994ae2b98e","46635b56d3c7f0b7bb26adae2a1692d"
2015-04-28,2052,"P",1977-03-03,2011-07-01,"8c146fd2bee417d","a5ae3f2dbbf72da099be343eabff98a"
2015-04-28,2099,"P",1966-02-23,1990-08-19,"15cd4d7a40afcef","1aaf97e300d50bacc554c8c27a1b968"
2015-04-28,2271,"B",1963-02-21,1974-12-05,"01bef5af8850263",""
2015-04-28,2443,"B",1996-03-17,2003-12-21,"57564a75b956451","6c16cc05218d7208044e08025f04d8f"
2015-04-28,2624,"P",1974-03-01,1980-11-11,"67801879f6aa56f",
2015-04-28,2739,"P",1979-03-05,1990-09-06,"78105f2b451b827","039a9883f6ec6cbb8f15a732f1da817"
2015-04-28,2749,"P",1953-02-13,1993-10-01,"0f1a7f55830add5","a3b4f619337e9bf6bd25e441434bec3"
2015-04-28,2842,"B",2012-03-29,2014-06-06,"980d32e44fa2445","f5884b3c1784c8860e9aa1092480c9a"
2015-04-28,3006,"B",1987-03-11,2002-06-29,"d7a530ee7e9054b",
2015-04-28,3058,"B",1966-02-23,1979-06-05,"ee889ff40117717","6a6408e6702b258600b936ae866a5b5"
2015-04-28,3142,"P",1935-01-31,,"6ecc5f78b0c2218",
2015-04-28,3296,"B",1963-02-21,1971-06-21,"d1ea9cd90523961","9ae56c694afe885cc5220849002a3a6"
2015-04-28,3453,"B",1948-02-10,1951-08-05,"8cf6cba70998dad","8a10191e65ccf722bf59e70ddda1555"
2015-04-28,3570,"B",1983-03-08,2004-03-29,"ae9278f7258f19a","7b6d57a3fcb869bbe04ac510dd183aa"
2015-04-28,3611,"P",1979-03-05,2010-04-28,,"73e91e1664210c0b54718b68073d1b7"
2015-04-28,3636,"P",1939-02-03,1969-06-09,"4233fc1309d5dd4",
2015-04-28,3709,"P",1985-03-09,2003-07-22,"79d6fb7524c7497","ace104f589733dc0c6223e59215cc74"
2015-04-28,3844,"P",1997-03-18,1999-07-22,"023d41279a8ceee","05ee8853268c69ba66c3a1c5433545b"
2015-04-28,3946,"P",1930-01-27,1963-10-24,"a8eea1d0de7713d","a1ec6a90e80323bd3541f374b193be8"
2015-04-28,4087,"P",1937-02-01,1969-01-04,"61122427e911176","8f7f63fd3b611035f1aa34d64a39f9f"
2015-04-28,4088,"P",1954-02-14,1977-11-23,,"3d4ba0dbe63a11bc53e7b5b5c6f0d55"
2015-04-28,4142,"B",2008-03-26,2012-03-04,"144fb5209e66139","fc70db0a12d574a3a3b2331e5b1b77f"
2015-04-28,4241,"B",1917-01-17,1965-08-22,"c9d0f8d03c7beed","60cafa03272449d4129f58adaa38cc9"
2015-04-28,4437,"P",1988-03-11,2009-06-17,"24165f4334e55ec","28568ee9ca159d43e5ac8868907c2f7"
2015-04-28,4624,"B",1938-02-02,2009-01-13,,"d7f6d016e67079eb2eaa101fa1d4432"
2015-04-28,4749,"P",1997-03-18,,"f99f3e9f62c0eb3","66dfd8bb9bcf776b908c210fc627822"
2015-04-28,4929,"P",1924-01-23,,"3c328cfa6623e9d","d0f0593601de6483b1854b42e4f6d76"
2015-04-28,5056,"B",1997-03-18,2014-02-23,"9f8a21db3d7c0cd","fcf40aad4b47bd255955ec65d40b3f2"
2015-04-28,5151,"B",1951-02-12,2011-12-29,"3bbfca2849c01ad","236e5fcfd21603c33b82ddd89bab7c4"
